%YAML 1.1
%TAG !u! tag:unity3d.com,2011:
--- !u!114 &11400000
MonoBehaviour:
  m_ObjectHideFlags: 0
  m_CorrespondingSourceObject: {fileID: 0}
  m_PrefabInstance: {fileID: 0}
  m_PrefabAsset: {fileID: 0}
  m_GameObject: {fileID: 0}
  m_Enabled: 1
  m_EditorHideFlags: 0
  m_Script: {fileID: 11500000, guid: 286dffe456b68134bb5240d339cf9e54, type: 3}
  m_Name: Int0_Wall
  m_EditorClassIdentifier: 
  title: 
  displaySprite: {fileID: 0}
  displaySprite_seleceted: {fileID: 0}
  defaultIsEmpty: 0
  defaultItem: {fileID: 0}
  basicTabContents: []
  derivedtabContents:
  - id: 1
    displaySprite: {fileID: 0}
    cost: 0
    integerData: 0
