%YAML 1.1
%TAG !u! tag:unity3d.com,2011:
--- !u!74 &7400000
AnimationClip:
  m_ObjectHideFlags: 0
  m_CorrespondingSourceObject: {fileID: 0}
  m_PrefabInstance: {fileID: 0}
  m_PrefabAsset: {fileID: 0}
  m_Name: swing_action
  serializedVersion: 6
  m_Legacy: 0
  m_Compressed: 0
  m_UseHighQualityCurve: 1
  m_RotationCurves: []
  m_CompressedRotationCurves: []
  m_EulerCurves:
  - curve:
      serializedVersion: 2
      m_Curve:
      - serializedVersion: 3
        time: 0
        value: {x: 0, y: 0, z: 0}
        inSlope: {x: 0, y: 0, z: 179.09805}
        outSlope: {x: 0, y: 0, z: 179.09805}
        tangentMode: 0
        weightedMode: 0
        inWeight: {x: 0.33333334, y: 0.33333334, z: 0.33333334}
        outWeight: {x: 0.33333334, y: 0.33333334, z: 1}
      - serializedVersion: 3
        time: 0.25
        value: {x: 0, y: 0, z: 55}
        inSlope: {x: 0, y: 0, z: 0}
        outSlope: {x: 0, y: 0, z: 0}
        tangentMode: 0
        weightedMode: 0
        inWeight: {x: 0.33333334, y: 0.33333334, z: 0.33333334}
        outWeight: {x: 0.33333334, y: 0.33333334, z: 0.33333334}
      - serializedVersion: 3
        time: 0.5
        value: {x: 0, y: 0, z: 0}
        inSlope: {x: 0, y: 0, z: -287.09793}
        outSlope: {x: 0, y: 0, z: -287.09793}
        tangentMode: 0
        weightedMode: 0
        inWeight: {x: 0.33333334, y: 0.33333334, z: 0.17406535}
        outWeight: {x: 0.33333334, y: 0.33333334, z: 0.4863477}
      - serializedVersion: 3
        time: 0.7
        value: {x: 0, y: 0, z: -26.377659}
        inSlope: {x: 0, y: 0, z: 0}
        outSlope: {x: 0, y: 0, z: 0}
        tangentMode: 0
        weightedMode: 0
        inWeight: {x: 0.33333334, y: 0.33333334, z: 0.33333334}
        outWeight: {x: 0.33333334, y: 0.33333334, z: 0.33333334}
      - serializedVersion: 3
        time: 0.93333334
        value: {x: 0, y: 0, z: 0}
        inSlope: {x: 0, y: 0, z: 179.09805}
        outSlope: {x: 0, y: 0, z: 179.09805}
        tangentMode: 0
        weightedMode: 0
        inWeight: {x: 0.33333334, y: 0.33333334, z: 0.33333334}
        outWeight: {x: 0.33333334, y: 0.33333334, z: 1}
      - serializedVersion: 3
        time: 1
        value: {x: 0, y: 0, z: 10.988161}
        inSlope: {x: 0, y: 0, z: 148.47023}
        outSlope: {x: 0, y: 0, z: 148.47023}
        tangentMode: 0
        weightedMode: 0
        inWeight: {x: 0.33333334, y: 0.33333334, z: 0.33333334}
        outWeight: {x: 0.33333334, y: 0.33333334, z: 0.33333334}
      - serializedVersion: 3
        time: 1.1833333
        value: {x: 0, y: 0, z: 26.037468}
        inSlope: {x: 0, y: 0, z: 0}
        outSlope: {x: 0, y: 0, z: 0}
        tangentMode: 0
        weightedMode: 0
        inWeight: {x: 0.33333334, y: 0.33333334, z: 0.33333334}
        outWeight: {x: 0.33333334, y: 0.33333334, z: 0.33333334}
      - serializedVersion: 3
        time: 1.3833333
        value: {x: 0, y: 0, z: -0.27964842}
        inSlope: {x: 0, y: 0, z: -144.5082}
        outSlope: {x: 0, y: 0, z: -144.5082}
        tangentMode: 0
        weightedMode: 0
        inWeight: {x: 0.33333334, y: 0.33333334, z: 0.33333334}
        outWeight: {x: 0.33333334, y: 0.33333334, z: 0.4863477}
      - serializedVersion: 3
        time: 1.6
        value: {x: 0, y: 0, z: -17.053345}
        inSlope: {x: 0, y: 0, z: 0}
        outSlope: {x: 0, y: 0, z: 0}
        tangentMode: 0
        weightedMode: 0
        inWeight: {x: 0.33333334, y: 0.33333334, z: 0.33333334}
        outWeight: {x: 0.33333334, y: 0.33333334, z: 0.33333334}
      - serializedVersion: 3
        time: 1.8166667
        value: {x: 0, y: 0, z: -0.25499165}
        inSlope: {x: 0, y: 0, z: 115.67981}
        outSlope: {x: 0, y: 0, z: 115.67981}
        tangentMode: 0
        weightedMode: 0
        inWeight: {x: 0.33333334, y: 0.33333334, z: 0.6109786}
        outWeight: {x: 0.33333334, y: 0.33333334, z: 0.48632184}
      - serializedVersion: 3
        time: 2
        value: {x: 0, y: 0, z: 12.1460495}
        inSlope: {x: 0, y: 0, z: 0}
        outSlope: {x: 0, y: 0, z: 0}
        tangentMode: 0
        weightedMode: 0
        inWeight: {x: 0.33333334, y: 0.33333334, z: 0.33333334}
        outWeight: {x: 0.33333334, y: 0.33333334, z: 0.33333334}
      - serializedVersion: 3
        time: 2.15
        value: {x: 0, y: 0, z: -0.8389435}
        inSlope: {x: 0, y: 0, z: -144.5082}
        outSlope: {x: 0, y: 0, z: -144.5082}
        tangentMode: 0
        weightedMode: 0
        inWeight: {x: 0.33333334, y: 0.33333334, z: 0.33333334}
        outWeight: {x: 0.33333334, y: 0.33333334, z: 0.4863477}
      - serializedVersion: 3
        time: 2.3333333
        value: {x: 0, y: 0, z: -10.523621}
        inSlope: {x: 0, y: 0, z: 0}
        outSlope: {x: 0, y: 0, z: 0}
        tangentMode: 0
        weightedMode: 0
        inWeight: {x: 0.33333334, y: 0.33333334, z: 0.33333334}
        outWeight: {x: 0.33333334, y: 0.33333334, z: 0.33333334}
      - serializedVersion: 3
        time: 2.5166667
        value: {x: 0, y: 0, z: -1.3982391}
        inSlope: {x: 0, y: 0, z: 79.47682}
        outSlope: {x: 0, y: 0, z: 79.47682}
        tangentMode: 0
        weightedMode: 0
        inWeight: {x: 0.33333334, y: 0.33333334, z: 1}
        outWeight: {x: 0.33333334, y: 0.33333334, z: 0.9009529}
      - serializedVersion: 3
        time: 2.6833334
        value: {x: 0, y: 0, z: 6.1312046}
        inSlope: {x: 0, y: 0, z: 0}
        outSlope: {x: 0, y: 0, z: 0}
        tangentMode: 0
        weightedMode: 0
        inWeight: {x: 0.33333334, y: 0.33333334, z: 0.33333334}
        outWeight: {x: 0.33333334, y: 0.33333334, z: 0.33333334}
      - serializedVersion: 3
        time: 2.8833334
        value: {x: 0, y: 0, z: -1.1185892}
        inSlope: {x: 0, y: 0, z: -67.23326}
        outSlope: {x: 0, y: 0, z: -67.23326}
        tangentMode: 0
        weightedMode: 0
        inWeight: {x: 0.33333334, y: 0.33333334, z: 0.83844465}
        outWeight: {x: 0.33333334, y: 0.33333334, z: 1}
      - serializedVersion: 3
        time: 3.0166667
        value: {x: 0, y: 0, z: -6.5082026}
        inSlope: {x: 0, y: 0, z: -15.834695}
        outSlope: {x: 0, y: 0, z: -15.834695}
        tangentMode: 0
        weightedMode: 0
        inWeight: {x: 0.33333334, y: 0.33333334, z: 0.33333334}
        outWeight: {x: 0.33333334, y: 0.33333334, z: 0.33333334}
      - serializedVersion: 3
        time: 3.0666666
        value: {x: 0, y: 0, z: -6.8962517}
        inSlope: {x: 0, y: 0, z: 0}
        outSlope: {x: 0, y: 0, z: 0}
        tangentMode: 0
        weightedMode: 0
        inWeight: {x: 0.33333334, y: 0.33333334, z: 0.33333334}
        outWeight: {x: 0.33333334, y: 0.33333334, z: 0.33333334}
      - serializedVersion: 3
        time: 3.25
        value: {x: 0, y: 0, z: -0.8389435}
        inSlope: {x: 0, y: 0, z: 61.7273}
        outSlope: {x: 0, y: 0, z: 61.7273}
        tangentMode: 0
        weightedMode: 0
        inWeight: {x: 0.33333334, y: 0.33333334, z: 0.6109786}
        outWeight: {x: 0.33333334, y: 0.33333334, z: 0.33333334}
      - serializedVersion: 3
        time: 3.4666667
        value: {x: 0, y: 0, z: 3.8061585}
        inSlope: {x: 0, y: 0, z: 4.312081}
        outSlope: {x: 0, y: 0, z: 4.312081}
        tangentMode: 0
        weightedMode: 0
        inWeight: {x: 0.33333334, y: 0.33333334, z: 0.33333334}
        outWeight: {x: 0.33333334, y: 0.33333334, z: 0.33333334}
      - serializedVersion: 3
        time: 3.7333333
        value: {x: 0, y: 0, z: -3.3557699}
        inSlope: {x: 0, y: 0, z: 3.6416056}
        outSlope: {x: 0, y: 0, z: 3.6416056}
        tangentMode: 0
        weightedMode: 0
        inWeight: {x: 0.33333334, y: 0.33333334, z: 0.33333334}
        outWeight: {x: 0.33333334, y: 0.33333334, z: 1}
      - serializedVersion: 3
        time: 3.9666667
        value: {x: 0, y: 0, z: 2.2279868}
        inSlope: {x: 0, y: 0, z: 0.7307495}
        outSlope: {x: 0, y: 0, z: 0.7307495}
        tangentMode: 0
        weightedMode: 0
        inWeight: {x: 0.33333334, y: 0.33333334, z: 0.33333334}
        outWeight: {x: 0.33333334, y: 0.33333334, z: 0.45186844}
      - serializedVersion: 3
        time: 4.016667
        value: {x: 0, y: 0, z: 1.958991}
        inSlope: {x: 0, y: 0, z: -10.892453}
        outSlope: {x: 0, y: 0, z: -10.892453}
        tangentMode: 0
        weightedMode: 0
        inWeight: {x: 0.33333334, y: 0.33333334, z: 0.33333334}
        outWeight: {x: 0.33333334, y: 0.33333334, z: 0.33333334}
      - serializedVersion: 3
        time: 4.0333333
        value: {x: 0, y: 0, z: 1.7512587}
        inSlope: {x: 0, y: 0, z: -13.969345}
        outSlope: {x: 0, y: 0, z: -13.969345}
        tangentMode: 0
        weightedMode: 0
        inWeight: {x: 0.33333334, y: 0.33333334, z: 0.33333334}
        outWeight: {x: 0.33333334, y: 0.33333334, z: 0.33333334}
      - serializedVersion: 3
        time: 4.2166667
        value: {x: 0, y: 0, z: -2.2371826}
        inSlope: {x: 0, y: 0, z: -21.499985}
        outSlope: {x: 0, y: 0, z: -21.499985}
        tangentMode: 0
        weightedMode: 0
        inWeight: {x: 0.33333334, y: 0.33333334, z: 1}
        outWeight: {x: 0.33333334, y: 0.33333334, z: 0.4863477}
      - serializedVersion: 3
        time: 4.5666666
        value: {x: 0, y: 0, z: -0.24029541}
        inSlope: {x: 0, y: 0, z: 0}
        outSlope: {x: 0, y: 0, z: 0}
        tangentMode: 0
        weightedMode: 0
        inWeight: {x: 0.33333334, y: 0.33333334, z: 0.33333334}
        outWeight: {x: 0.33333334, y: 0.33333334, z: 0.33333334}
      - serializedVersion: 3
        time: 4.8
        value: {x: 0, y: 0, z: -1.2922795}
        inSlope: {x: 0, y: 0, z: 0.82656443}
        outSlope: {x: 0, y: 0, z: 0.82656443}
        tangentMode: 0
        weightedMode: 0
        inWeight: {x: 0.33333334, y: 0.33333334, z: 0.33333334}
        outWeight: {x: 0.33333334, y: 0.33333334, z: 0.33333334}
      - serializedVersion: 3
        time: 5.0333333
        value: {x: 0, y: 0, z: 0}
        inSlope: {x: 0, y: 0, z: 22.469086}
        outSlope: {x: 0, y: 0, z: 22.469086}
        tangentMode: 0
        weightedMode: 0
        inWeight: {x: 0.33333334, y: 0.33333334, z: 1}
        outWeight: {x: 0.33333334, y: 0.33333334, z: 0.33333334}
      m_PreInfinity: 2
      m_PostInfinity: 2
      m_RotationOrder: 4
    path: 
  m_PositionCurves: []
  m_ScaleCurves: []
  m_FloatCurves: []
  m_PPtrCurves: []
  m_SampleRate: 60
  m_WrapMode: 0
  m_Bounds:
    m_Center: {x: 0, y: 0, z: 0}
    m_Extent: {x: 0, y: 0, z: 0}
  m_ClipBindingConstant:
    genericBindings:
    - serializedVersion: 2
      path: 0
      attribute: 4
      script: {fileID: 0}
      typeID: 4
      customType: 4
      isPPtrCurve: 0
    pptrCurveMapping: []
  m_AnimationClipSettings:
    serializedVersion: 2
    m_AdditiveReferencePoseClip: {fileID: 0}
    m_AdditiveReferencePoseTime: 0
    m_StartTime: 0
    m_StopTime: 5.0333333
    m_OrientationOffsetY: 0
    m_Level: 0
    m_CycleOffset: 0
    m_HasAdditiveReferencePose: 0
    m_LoopTime: 0
    m_LoopBlend: 0
    m_LoopBlendOrientation: 0
    m_LoopBlendPositionY: 0
    m_LoopBlendPositionXZ: 0
    m_KeepOriginalOrientation: 0
    m_KeepOriginalPositionY: 1
    m_KeepOriginalPositionXZ: 0
    m_HeightFromFeet: 0
    m_Mirror: 0
  m_EditorCurves:
  - curve:
      serializedVersion: 2
      m_Curve:
      - serializedVersion: 3
        time: 0
        value: 0
        inSlope: 0
        outSlope: 0
        tangentMode: 136
        weightedMode: 0
        inWeight: 0.33333334
        outWeight: 0.33333334
      - serializedVersion: 3
        time: 1
        value: 0
        inSlope: 0
        outSlope: 0
        tangentMode: 136
        weightedMode: 0
        inWeight: 0.33333334
        outWeight: 0.33333334
      - serializedVersion: 3
        time: 2
        value: 0
        inSlope: 0
        outSlope: 0
        tangentMode: 136
        weightedMode: 0
        inWeight: 0.33333334
        outWeight: 0.33333334
      - serializedVersion: 3
        time: 3.0166667
        value: 0
        inSlope: 0
        outSlope: 0
        tangentMode: 136
        weightedMode: 0
        inWeight: 0.33333334
        outWeight: 0.33333334
      - serializedVersion: 3
        time: 4.016667
        value: 0
        inSlope: 0
        outSlope: 0
        tangentMode: 136
        weightedMode: 0
        inWeight: 0.33333334
        outWeight: 0.33333334
      - serializedVersion: 3
        time: 4.0333333
        value: 0
        inSlope: 0
        outSlope: 0
        tangentMode: 136
        weightedMode: 0
        inWeight: 0.33333334
        outWeight: 0.33333334
      - serializedVersion: 3
        time: 5.0333333
        value: 0
        inSlope: 0
        outSlope: 0
        tangentMode: 136
        weightedMode: 0
        inWeight: 0.33333334
        outWeight: 0.33333334
      m_PreInfinity: 2
      m_PostInfinity: 2
      m_RotationOrder: 4
    attribute: localEulerAnglesRaw.x
    path: 
    classID: 4
    script: {fileID: 0}
  - curve:
      serializedVersion: 2
      m_Curve:
      - serializedVersion: 3
        time: 0
        value: 0
        inSlope: 0
        outSlope: 0
        tangentMode: 136
        weightedMode: 0
        inWeight: 0.33333334
        outWeight: 0.33333334
      - serializedVersion: 3
        time: 1
        value: 0
        inSlope: 0
        outSlope: 0
        tangentMode: 136
        weightedMode: 0
        inWeight: 0.33333334
        outWeight: 0.33333334
      - serializedVersion: 3
        time: 2
        value: 0
        inSlope: 0
        outSlope: 0
        tangentMode: 136
        weightedMode: 0
        inWeight: 0.33333334
        outWeight: 0.33333334
      - serializedVersion: 3
        time: 3.0166667
        value: 0
        inSlope: 0
        outSlope: 0
        tangentMode: 136
        weightedMode: 0
        inWeight: 0.33333334
        outWeight: 0.33333334
      - serializedVersion: 3
        time: 4.016667
        value: 0
        inSlope: 0
        outSlope: 0
        tangentMode: 136
        weightedMode: 0
        inWeight: 0.33333334
        outWeight: 0.33333334
      - serializedVersion: 3
        time: 4.0333333
        value: 0
        inSlope: 0
        outSlope: 0
        tangentMode: 136
        weightedMode: 0
        inWeight: 0.33333334
        outWeight: 0.33333334
      - serializedVersion: 3
        time: 5.0333333
        value: 0
        inSlope: 0
        outSlope: 0
        tangentMode: 136
        weightedMode: 0
        inWeight: 0.33333334
        outWeight: 0.33333334
      m_PreInfinity: 2
      m_PostInfinity: 2
      m_RotationOrder: 4
    attribute: localEulerAnglesRaw.y
    path: 
    classID: 4
    script: {fileID: 0}
  - curve:
      serializedVersion: 2
      m_Curve:
      - serializedVersion: 3
        time: 0
        value: 0
        inSlope: 179.09805
        outSlope: 179.09805
        tangentMode: 0
        weightedMode: 0
        inWeight: 0.33333334
        outWeight: 1
      - serializedVersion: 3
        time: 0.25
        value: 55
        inSlope: 0
        outSlope: 0
        tangentMode: 136
        weightedMode: 0
        inWeight: 0.33333334
        outWeight: 0.33333334
      - serializedVersion: 3
        time: 0.5
        value: 0
        inSlope: -287.09793
        outSlope: -287.09793
        tangentMode: 0
        weightedMode: 0
        inWeight: 0.17406535
        outWeight: 0.4863477
      - serializedVersion: 3
        time: 0.7
        value: -26.377659
        inSlope: 0
        outSlope: 0
        tangentMode: 136
        weightedMode: 0
        inWeight: 0.33333334
        outWeight: 0.33333334
      - serializedVersion: 3
        time: 0.93333334
        value: 0
        inSlope: 179.09805
        outSlope: 179.09805
        tangentMode: 0
        weightedMode: 0
        inWeight: 0.33333334
        outWeight: 1
      - serializedVersion: 3
        time: 1.1833333
        value: 26.037468
        inSlope: 0
        outSlope: 0
        tangentMode: 136
        weightedMode: 0
        inWeight: 0.33333334
        outWeight: 0.33333334
      - serializedVersion: 3
        time: 1.3833333
        value: -0.27964842
        inSlope: -144.5082
        outSlope: -144.5082
        tangentMode: 0
        weightedMode: 0
        inWeight: 0.33333334
        outWeight: 0.4863477
      - serializedVersion: 3
        time: 1.6
        value: -17.053345
        inSlope: 0
        outSlope: 0
        tangentMode: 136
        weightedMode: 0
        inWeight: 0.33333334
        outWeight: 0.33333334
      - serializedVersion: 3
        time: 1.8166667
        value: -0.25499165
        inSlope: 115.67981
        outSlope: 115.67981
        tangentMode: 0
        weightedMode: 0
        inWeight: 0.6109786
        outWeight: 0.48632184
      - serializedVersion: 3
        time: 2
        value: 12.1460495
        inSlope: 0
        outSlope: 0
        tangentMode: 136
        weightedMode: 0
        inWeight: 0.33333334
        outWeight: 0.33333334
      - serializedVersion: 3
        time: 2.15
        value: -0.8389435
        inSlope: -144.5082
        outSlope: -144.5082
        tangentMode: 0
        weightedMode: 0
        inWeight: 0.33333334
        outWeight: 0.4863477
      - serializedVersion: 3
        time: 2.3333333
        value: -10.523621
        inSlope: 0
        outSlope: 0
        tangentMode: 136
        weightedMode: 0
        inWeight: 0.33333334
        outWeight: 0.33333334
      - serializedVersion: 3
        time: 2.5166667
        value: -1.3982391
        inSlope: 79.47682
        outSlope: 79.47682
        tangentMode: 0
        weightedMode: 0
        inWeight: 1
        outWeight: 0.9009529
      - serializedVersion: 3
        time: 2.6833334
        value: 6.1312046
        inSlope: 0
        outSlope: 0
        tangentMode: 136
        weightedMode: 0
        inWeight: 0.33333334
        outWeight: 0.33333334
      - serializedVersion: 3
        time: 2.8833334
        value: -1.1185892
        inSlope: -67.23326
        outSlope: -67.23326
        tangentMode: 0
        weightedMode: 0
        inWeight: 0.83844465
        outWeight: 1
      - serializedVersion: 3
        time: 3.0666666
        value: -6.8962517
        inSlope: 0
        outSlope: 0
        tangentMode: 136
        weightedMode: 0
        inWeight: 0.33333334
        outWeight: 0.33333334
      - serializedVersion: 3
        time: 3.25
        value: -0.8389435
        inSlope: 61.7273
        outSlope: 61.7273
        tangentMode: 0
        weightedMode: 0
        inWeight: 0.6109786
        outWeight: 0.33333334
      - serializedVersion: 3
        time: 3.4666667
        value: 3.8061585
        inSlope: 4.312081
        outSlope: 4.312081
        tangentMode: 0
        weightedMode: 0
        inWeight: 0.33333334
        outWeight: 0.33333334
      - serializedVersion: 3
        time: 3.7333333
        value: -3.3557699
        inSlope: 3.6416056
        outSlope: 3.6416056
        tangentMode: 0
        weightedMode: 0
        inWeight: 0.33333334
        outWeight: 1
      - serializedVersion: 3
        time: 3.9666667
        value: 2.2279868
        inSlope: 0.7307495
        outSlope: 0.7307495
        tangentMode: 0
        weightedMode: 0
        inWeight: 0.33333334
        outWeight: 0.45186844
      - serializedVersion: 3
        time: 4.2166667
        value: -2.2371826
        inSlope: -21.499985
        outSlope: -21.499985
        tangentMode: 0
        weightedMode: 0
        inWeight: 1
        outWeight: 0.4863477
      - serializedVersion: 3
        time: 4.5666666
        value: -0.24029541
        inSlope: 0
        outSlope: 0
        tangentMode: 136
        weightedMode: 0
        inWeight: 0.33333334
        outWeight: 0.33333334
      - serializedVersion: 3
        time: 4.8
        value: -1.2922795
        inSlope: 0.82656443
        outSlope: 0.82656443
        tangentMode: 0
        weightedMode: 0
        inWeight: 0.33333334
        outWeight: 0.33333334
      - serializedVersion: 3
        time: 5.0333333
        value: 0
        inSlope: 22.469086
        outSlope: 22.469086
        tangentMode: 0
        weightedMode: 0
        inWeight: 1
        outWeight: 0.33333334
      m_PreInfinity: 2
      m_PostInfinity: 2
      m_RotationOrder: 4
    attribute: localEulerAnglesRaw.z
    path: 
    classID: 4
    script: {fileID: 0}
  m_EulerEditorCurves:
  - curve:
      serializedVersion: 2
      m_Curve: []
      m_PreInfinity: 2
      m_PostInfinity: 2
      m_RotationOrder: 4
    attribute: m_LocalEulerAngles.x
    path: 
    classID: 4
    script: {fileID: 0}
  - curve:
      serializedVersion: 2
      m_Curve: []
      m_PreInfinity: 2
      m_PostInfinity: 2
      m_RotationOrder: 4
    attribute: m_LocalEulerAngles.y
    path: 
    classID: 4
    script: {fileID: 0}
  - curve:
      serializedVersion: 2
      m_Curve: []
      m_PreInfinity: 2
      m_PostInfinity: 2
      m_RotationOrder: 4
    attribute: m_LocalEulerAngles.z
    path: 
    classID: 4
    script: {fileID: 0}
  m_HasGenericRootTransform: 1
  m_HasMotionFloatCurves: 0
  m_Events: []
