%YAML 1.1
%TAG !u! tag:unity3d.com,2011:
--- !u!29 &1
OcclusionCullingSettings:
  m_ObjectHideFlags: 0
  serializedVersion: 2
  m_OcclusionBakeSettings:
    smallestOccluder: 5
    smallestHole: 0.25
    backfaceThreshold: 100
  m_SceneGUID: 00000000000000000000000000000000
  m_OcclusionCullingData: {fileID: 0}
--- !u!104 &2
RenderSettings:
  m_ObjectHideFlags: 0
  serializedVersion: 9
  m_Fog: 0
  m_FogColor: {r: 0.5, g: 0.5, b: 0.5, a: 1}
  m_FogMode: 3
  m_FogDensity: 0.01
  m_LinearFogStart: 0
  m_LinearFogEnd: 300
  m_AmbientSkyColor: {r: 0.212, g: 0.227, b: 0.259, a: 1}
  m_AmbientEquatorColor: {r: 0.114, g: 0.125, b: 0.133, a: 1}
  m_AmbientGroundColor: {r: 0.047, g: 0.043, b: 0.035, a: 1}
  m_AmbientIntensity: 1
  m_AmbientMode: 0
  m_SubtractiveShadowColor: {r: 0.42, g: 0.478, b: 0.627, a: 1}
  m_SkyboxMaterial: {fileID: 10304, guid: 0000000000000000f000000000000000, type: 0}
  m_HaloStrength: 0.5
  m_FlareStrength: 1
  m_FlareFadeSpeed: 3
  m_HaloTexture: {fileID: 0}
  m_SpotCookie: {fileID: 10001, guid: 0000000000000000e000000000000000, type: 0}
  m_DefaultReflectionMode: 0
  m_DefaultReflectionResolution: 128
  m_ReflectionBounces: 1
  m_ReflectionIntensity: 1
  m_CustomReflection: {fileID: 0}
  m_Sun: {fileID: 0}
  m_IndirectSpecularColor: {r: 0.17349902, g: 0.21689132, b: 0.29898188, a: 1}
  m_UseRadianceAmbientProbe: 0
--- !u!157 &3
LightmapSettings:
  m_ObjectHideFlags: 0
  serializedVersion: 12
  m_GIWorkflowMode: 1
  m_GISettings:
    serializedVersion: 2
    m_BounceScale: 1
    m_IndirectOutputScale: 1
    m_AlbedoBoost: 1
    m_EnvironmentLightingMode: 0
    m_EnableBakedLightmaps: 1
    m_EnableRealtimeLightmaps: 0
  m_LightmapEditorSettings:
    serializedVersion: 12
    m_Resolution: 2
    m_BakeResolution: 40
    m_AtlasSize: 1024
    m_AO: 0
    m_AOMaxDistance: 1
    m_CompAOExponent: 1
    m_CompAOExponentDirect: 0
    m_ExtractAmbientOcclusion: 0
    m_Padding: 2
    m_LightmapParameters: {fileID: 0}
    m_LightmapsBakeMode: 1
    m_TextureCompression: 1
    m_FinalGather: 0
    m_FinalGatherFiltering: 1
    m_FinalGatherRayCount: 256
    m_ReflectionCompression: 2
    m_MixedBakeMode: 2
    m_BakeBackend: 1
    m_PVRSampling: 1
    m_PVRDirectSampleCount: 32
    m_PVRSampleCount: 512
    m_PVRBounces: 2
    m_PVREnvironmentSampleCount: 256
    m_PVREnvironmentReferencePointCount: 2048
    m_PVRFilteringMode: 1
    m_PVRDenoiserTypeDirect: 1
    m_PVRDenoiserTypeIndirect: 1
    m_PVRDenoiserTypeAO: 1
    m_PVRFilterTypeDirect: 0
    m_PVRFilterTypeIndirect: 0
    m_PVRFilterTypeAO: 0
    m_PVREnvironmentMIS: 1
    m_PVRCulling: 1
    m_PVRFilteringGaussRadiusDirect: 1
    m_PVRFilteringGaussRadiusIndirect: 5
    m_PVRFilteringGaussRadiusAO: 2
    m_PVRFilteringAtrousPositionSigmaDirect: 0.5
    m_PVRFilteringAtrousPositionSigmaIndirect: 2
    m_PVRFilteringAtrousPositionSigmaAO: 1
    m_ExportTrainingData: 0
    m_TrainingDataDestination: TrainingData
    m_LightProbeSampleCountMultiplier: 4
  m_LightingDataAsset: {fileID: 0}
  m_LightingSettings: {fileID: 0}
--- !u!196 &4
NavMeshSettings:
  serializedVersion: 2
  m_ObjectHideFlags: 0
  m_BuildSettings:
    serializedVersion: 2
    agentTypeID: 0
    agentRadius: 0.5
    agentHeight: 2
    agentSlope: 45
    agentClimb: 0.4
    ledgeDropHeight: 0
    maxJumpAcrossDistance: 0
    minRegionArea: 2
    manualCellSize: 0
    cellSize: 0.16666667
    manualTileSize: 0
    tileSize: 256
    accuratePlacement: 0
    maxJobWorkers: 0
    preserveTilesOutsideBounds: 0
    debug:
      m_Flags: 0
  m_NavMeshData: {fileID: 0}
--- !u!1001 &1361128247
PrefabInstance:
  m_ObjectHideFlags: 0
  serializedVersion: 2
  m_Modification:
    m_TransformParent: {fileID: 0}
    m_Modifications:
    - target: {fileID: -8679921383154817045, guid: 585f6be3a74e47149824b2562940c846,
        type: 3}
      propertyPath: m_RootOrder
      value: 1
      objectReference: {fileID: 0}
    - target: {fileID: -8679921383154817045, guid: 585f6be3a74e47149824b2562940c846,
        type: 3}
      propertyPath: m_LocalPosition.x
      value: 0
      objectReference: {fileID: 0}
    - target: {fileID: -8679921383154817045, guid: 585f6be3a74e47149824b2562940c846,
        type: 3}
      propertyPath: m_LocalPosition.y
      value: 0
      objectReference: {fileID: 0}
    - target: {fileID: -8679921383154817045, guid: 585f6be3a74e47149824b2562940c846,
        type: 3}
      propertyPath: m_LocalPosition.z
      value: 0
      objectReference: {fileID: 0}
    - target: {fileID: -8679921383154817045, guid: 585f6be3a74e47149824b2562940c846,
        type: 3}
      propertyPath: m_LocalRotation.w
      value: 1
      objectReference: {fileID: 0}
    - target: {fileID: -8679921383154817045, guid: 585f6be3a74e47149824b2562940c846,
        type: 3}
      propertyPath: m_LocalRotation.x
      value: 0
      objectReference: {fileID: 0}
    - target: {fileID: -8679921383154817045, guid: 585f6be3a74e47149824b2562940c846,
        type: 3}
      propertyPath: m_LocalRotation.y
      value: 0
      objectReference: {fileID: 0}
    - target: {fileID: -8679921383154817045, guid: 585f6be3a74e47149824b2562940c846,
        type: 3}
      propertyPath: m_LocalRotation.z
      value: 0
      objectReference: {fileID: 0}
    - target: {fileID: -8679921383154817045, guid: 585f6be3a74e47149824b2562940c846,
        type: 3}
      propertyPath: m_LocalEulerAnglesHint.x
      value: 0
      objectReference: {fileID: 0}
    - target: {fileID: -8679921383154817045, guid: 585f6be3a74e47149824b2562940c846,
        type: 3}
      propertyPath: m_LocalEulerAnglesHint.y
      value: 0
      objectReference: {fileID: 0}
    - target: {fileID: -8679921383154817045, guid: 585f6be3a74e47149824b2562940c846,
        type: 3}
      propertyPath: m_LocalEulerAnglesHint.z
      value: 0
      objectReference: {fileID: 0}
    - target: {fileID: 919132149155446097, guid: 585f6be3a74e47149824b2562940c846,
        type: 3}
      propertyPath: m_Name
      value: Laser light follow-3 [Bonus] LV-72
      objectReference: {fileID: 0}
    m_RemovedComponents: []
  m_SourcePrefab: {fileID: 100100000, guid: 585f6be3a74e47149824b2562940c846, type: 3}
--- !u!1001 &6591798146064752823
PrefabInstance:
  m_ObjectHideFlags: 0
  serializedVersion: 2
  m_Modification:
    m_TransformParent: {fileID: 0}
    m_Modifications:
    - target: {fileID: 6591798145441266053, guid: d358ad76fa4d5cd4da40a0e0e2f0b4c3,
        type: 3}
      propertyPath: m_Follow
      value: 
      objectReference: {fileID: 0}
    - target: {fileID: 6591798145441266053, guid: d358ad76fa4d5cd4da40a0e0e2f0b4c3,
        type: 3}
      propertyPath: m_LookAt
      value: 
      objectReference: {fileID: 0}
    - target: {fileID: 6591798145441266054, guid: d358ad76fa4d5cd4da40a0e0e2f0b4c3,
        type: 3}
      propertyPath: m_LocalPosition.x
      value: -3.35
      objectReference: {fileID: 0}
    - target: {fileID: 6591798145441266054, guid: d358ad76fa4d5cd4da40a0e0e2f0b4c3,
        type: 3}
      propertyPath: m_LocalPosition.z
      value: 6.74
      objectReference: {fileID: 0}
    - target: {fileID: 6591798145441266054, guid: d358ad76fa4d5cd4da40a0e0e2f0b4c3,
        type: 3}
      propertyPath: m_LocalRotation.w
      value: 0.19332422
      objectReference: {fileID: 0}
    - target: {fileID: 6591798145441266054, guid: d358ad76fa4d5cd4da40a0e0e2f0b4c3,
        type: 3}
      propertyPath: m_LocalRotation.x
      value: 0.06133079
      objectReference: {fileID: 0}
    - target: {fileID: 6591798145441266054, guid: d358ad76fa4d5cd4da40a0e0e2f0b4c3,
        type: 3}
      propertyPath: m_LocalRotation.y
      value: 0.93337315
      objectReference: {fileID: 0}
    - target: {fileID: 6591798145441266054, guid: d358ad76fa4d5cd4da40a0e0e2f0b4c3,
        type: 3}
      propertyPath: m_LocalRotation.z
      value: -0.29610625
      objectReference: {fileID: 0}
    - target: {fileID: 6591798145441266054, guid: d358ad76fa4d5cd4da40a0e0e2f0b4c3,
        type: 3}
      propertyPath: m_LocalEulerAnglesHint.x
      value: 34.525
      objectReference: {fileID: 0}
    - target: {fileID: 6591798145441266054, guid: d358ad76fa4d5cd4da40a0e0e2f0b4c3,
        type: 3}
      propertyPath: m_LocalEulerAnglesHint.y
      value: 130.37
      objectReference: {fileID: 0}
    - target: {fileID: 6591798145822699069, guid: d358ad76fa4d5cd4da40a0e0e2f0b4c3,
        type: 3}
      propertyPath: m_LocalPosition.x
      value: -3.35
      objectReference: {fileID: 0}
    - target: {fileID: 6591798145822699069, guid: d358ad76fa4d5cd4da40a0e0e2f0b4c3,
        type: 3}
      propertyPath: m_LocalPosition.y
      value: 6.95
      objectReference: {fileID: 0}
    - target: {fileID: 6591798145822699069, guid: d358ad76fa4d5cd4da40a0e0e2f0b4c3,
        type: 3}
      propertyPath: m_LocalPosition.z
      value: 6.74
      objectReference: {fileID: 0}
    - target: {fileID: 6591798145822699069, guid: d358ad76fa4d5cd4da40a0e0e2f0b4c3,
        type: 3}
      propertyPath: m_LocalRotation.w
      value: 0.19332422
      objectReference: {fileID: 0}
    - target: {fileID: 6591798145822699069, guid: d358ad76fa4d5cd4da40a0e0e2f0b4c3,
        type: 3}
      propertyPath: m_LocalRotation.x
      value: 0.06133079
      objectReference: {fileID: 0}
    - target: {fileID: 6591798145822699069, guid: d358ad76fa4d5cd4da40a0e0e2f0b4c3,
        type: 3}
      propertyPath: m_LocalRotation.y
      value: 0.93337315
      objectReference: {fileID: 0}
    - target: {fileID: 6591798145822699069, guid: d358ad76fa4d5cd4da40a0e0e2f0b4c3,
        type: 3}
      propertyPath: m_LocalRotation.z
      value: -0.29610625
      objectReference: {fileID: 0}
    - target: {fileID: 6591798145822699070, guid: d358ad76fa4d5cd4da40a0e0e2f0b4c3,
        type: 3}
      propertyPath: field of view
      value: 30
      objectReference: {fileID: 0}
    - target: {fileID: 6591798145906515450, guid: d358ad76fa4d5cd4da40a0e0e2f0b4c3,
        type: 3}
      propertyPath: m_RootOrder
      value: 0
      objectReference: {fileID: 0}
    - target: {fileID: 6591798145906515450, guid: d358ad76fa4d5cd4da40a0e0e2f0b4c3,
        type: 3}
      propertyPath: m_LocalPosition.x
      value: 0
      objectReference: {fileID: 0}
    - target: {fileID: 6591798145906515450, guid: d358ad76fa4d5cd4da40a0e0e2f0b4c3,
        type: 3}
      propertyPath: m_LocalPosition.y
      value: 0
      objectReference: {fileID: 0}
    - target: {fileID: 6591798145906515450, guid: d358ad76fa4d5cd4da40a0e0e2f0b4c3,
        type: 3}
      propertyPath: m_LocalPosition.z
      value: 0
      objectReference: {fileID: 0}
    - target: {fileID: 6591798145906515450, guid: d358ad76fa4d5cd4da40a0e0e2f0b4c3,
        type: 3}
      propertyPath: m_LocalRotation.w
      value: 1
      objectReference: {fileID: 0}
    - target: {fileID: 6591798145906515450, guid: d358ad76fa4d5cd4da40a0e0e2f0b4c3,
        type: 3}
      propertyPath: m_LocalRotation.x
      value: 0
      objectReference: {fileID: 0}
    - target: {fileID: 6591798145906515450, guid: d358ad76fa4d5cd4da40a0e0e2f0b4c3,
        type: 3}
      propertyPath: m_LocalRotation.y
      value: 0
      objectReference: {fileID: 0}
    - target: {fileID: 6591798145906515450, guid: d358ad76fa4d5cd4da40a0e0e2f0b4c3,
        type: 3}
      propertyPath: m_LocalRotation.z
      value: 0
      objectReference: {fileID: 0}
    - target: {fileID: 6591798145906515450, guid: d358ad76fa4d5cd4da40a0e0e2f0b4c3,
        type: 3}
      propertyPath: m_LocalEulerAnglesHint.x
      value: 0
      objectReference: {fileID: 0}
    - target: {fileID: 6591798145906515450, guid: d358ad76fa4d5cd4da40a0e0e2f0b4c3,
        type: 3}
      propertyPath: m_LocalEulerAnglesHint.y
      value: 0
      objectReference: {fileID: 0}
    - target: {fileID: 6591798145906515450, guid: d358ad76fa4d5cd4da40a0e0e2f0b4c3,
        type: 3}
      propertyPath: m_LocalEulerAnglesHint.z
      value: 0
      objectReference: {fileID: 0}
    - target: {fileID: 6591798145906515452, guid: d358ad76fa4d5cd4da40a0e0e2f0b4c3,
        type: 3}
      propertyPath: m_Name
      value: LevelManager
      objectReference: {fileID: 0}
    - target: {fileID: 6591798146776332064, guid: d358ad76fa4d5cd4da40a0e0e2f0b4c3,
        type: 3}
      propertyPath: m_FollowOffset.x
      value: -3.35
      objectReference: {fileID: 0}
    - target: {fileID: 6591798146776332064, guid: d358ad76fa4d5cd4da40a0e0e2f0b4c3,
        type: 3}
      propertyPath: m_FollowOffset.z
      value: 7.74
      objectReference: {fileID: 0}
    - target: {fileID: 6591798147068927827, guid: d358ad76fa4d5cd4da40a0e0e2f0b4c3,
        type: 3}
      propertyPath: m_LocalRotation.w
      value: 0.74470794
      objectReference: {fileID: 0}
    - target: {fileID: 6591798147068927827, guid: d358ad76fa4d5cd4da40a0e0e2f0b4c3,
        type: 3}
      propertyPath: m_LocalRotation.x
      value: 0.6151609
      objectReference: {fileID: 0}
    - target: {fileID: 6591798147068927827, guid: d358ad76fa4d5cd4da40a0e0e2f0b4c3,
        type: 3}
      propertyPath: m_LocalRotation.y
      value: -0.19954386
      objectReference: {fileID: 0}
    - target: {fileID: 6591798147068927827, guid: d358ad76fa4d5cd4da40a0e0e2f0b4c3,
        type: 3}
      propertyPath: m_LocalRotation.z
      value: 0.16483183
      objectReference: {fileID: 0}
    - target: {fileID: 6591798147068927827, guid: d358ad76fa4d5cd4da40a0e0e2f0b4c3,
        type: 3}
      propertyPath: m_LocalEulerAnglesHint.x
      value: 79.116
      objectReference: {fileID: 0}
    - target: {fileID: 6591798147068927827, guid: d358ad76fa4d5cd4da40a0e0e2f0b4c3,
        type: 3}
      propertyPath: m_LocalEulerAnglesHint.y
      value: -30
      objectReference: {fileID: 0}
    - target: {fileID: 6591798147068927828, guid: d358ad76fa4d5cd4da40a0e0e2f0b4c3,
        type: 3}
      propertyPath: m_Intensity
      value: 0.7
      objectReference: {fileID: 0}
    - target: {fileID: 8944682611642174796, guid: d358ad76fa4d5cd4da40a0e0e2f0b4c3,
        type: 3}
      propertyPath: m_text
      value: COLOR EVERYTHING
      objectReference: {fileID: 0}
    m_RemovedComponents: []
  m_SourcePrefab: {fileID: 100100000, guid: d358ad76fa4d5cd4da40a0e0e2f0b4c3, type: 3}
--- !u!1 &6591798146064752824 stripped
GameObject:
  m_CorrespondingSourceObject: {fileID: 6591798146776332066, guid: d358ad76fa4d5cd4da40a0e0e2f0b4c3,
    type: 3}
  m_PrefabInstance: {fileID: 6591798146064752823}
  m_PrefabAsset: {fileID: 0}
--- !u!114 &6591798146064752825
MonoBehaviour:
  m_ObjectHideFlags: 3
  m_CorrespondingSourceObject: {fileID: 0}
  m_PrefabInstance: {fileID: 0}
  m_PrefabAsset: {fileID: 0}
  m_GameObject: {fileID: 6591798146064752824}
  m_Enabled: 1
  m_EditorHideFlags: 0
  m_Script: {fileID: 11500000, guid: f4044717213e31446939f7bd49c896ea, type: 3}
  m_Name: 
  m_EditorClassIdentifier: 
  m_TrackedObjectOffset: {x: 0, y: 1, z: 0}
  m_LookaheadTime: 0
  m_LookaheadSmoothing: 0
  m_LookaheadIgnoreY: 0
  m_HorizontalDamping: 0
  m_VerticalDamping: 0
  m_ScreenX: 0.5
  m_ScreenY: 0.5
  m_DeadZoneWidth: 0
  m_DeadZoneHeight: 0
  m_SoftZoneWidth: 0.8
  m_SoftZoneHeight: 0.8
  m_BiasX: 0
  m_BiasY: 0
  m_CenterOnActivate: 1
