%YAML 1.1
%TAG !u! tag:unity3d.com,2011:
--- !u!114 &11400000
MonoBehaviour:
  m_ObjectHideFlags: 0
  m_CorrespondingSourceObject: {fileID: 0}
  m_PrefabInstance: {fileID: 0}
  m_PrefabAsset: {fileID: 0}
  m_GameObject: {fileID: 0}
  m_Enabled: 1
  m_EditorHideFlags: 0
  m_Script: {fileID: 11500000, guid: 4351e6e7fb6a97846afabab805323cdc, type: 3}
  m_Name: O3_Bed
  m_EditorClassIdentifier: 
  title: Bed
  displaySprite: {fileID: 21300000, guid: 96cf49019e7256641ac394e210cd79e9, type: 3}
  defaultIsEmpty: 1
  defaultItem: {fileID: 21300000, guid: 0b0611aa6df0ca64d8eda7081f933424, type: 3}
  basicTabContents: []
  derivedtabContents:
  - id: 0
    displaySprite: {fileID: 21300000, guid: fd50e2329390bfe4aadbd0381046fbce, type: 3}
    cost: 150
    integerData: 0
  - id: 1
    displaySprite: {fileID: 21300000, guid: d1157c13757d69b40b7b31bd7838e27f, type: 3}
    cost: 300
    integerData: 1
  - id: 2
    displaySprite: {fileID: 21300000, guid: a7e0f60738775b8419f80a95e4bf94ac, type: 3}
    cost: 500
    integerData: 2
  - id: 3
    displaySprite: {fileID: 21300000, guid: 88827fbfff5b53f4897c54240aabd6b6, type: 3}
    cost: 1000
    integerData: 3
  - id: 4
    displaySprite: {fileID: 21300000, guid: 4d72a920df731e34b85fd1187474ba7f, type: 3}
    cost: -1
    integerData: 4
  - id: 5
    displaySprite: {fileID: 21300000, guid: 4d1d4e343366a1c49a0477885747c4e7, type: 3}
    cost: -1
    integerData: 5
  - id: 6
    displaySprite: {fileID: 21300000, guid: 07d9e910dd140a843888fb8bfbb27e5c, type: 3}
    cost: -1
    integerData: 6
