%YAML 1.1
%TAG !u! tag:unity3d.com,2011:
--- !u!114 &11400000
MonoBehaviour:
  m_ObjectHideFlags: 0
  m_CorrespondingSourceObject: {fileID: 0}
  m_PrefabInstance: {fileID: 0}
  m_PrefabAsset: {fileID: 0}
  m_GameObject: {fileID: 0}
  m_Enabled: 1
  m_EditorHideFlags: 0
  m_Script: {fileID: 11500000, guid: 4351e6e7fb6a97846afabab805323cdc, type: 3}
  m_Name: O4_Seat
  m_EditorClassIdentifier: 
  title: Seat
  displaySprite: {fileID: 21300000, guid: bca77c2affaa74747b1510abbb0fec95, type: 3}
  defaultIsEmpty: 1
  defaultItem: {fileID: 21300000, guid: 0b0611aa6df0ca64d8eda7081f933424, type: 3}
  basicTabContents: []
  derivedtabContents:
  - id: 0
    displaySprite: {fileID: 21300000, guid: d5afc8941b25bb64ea0e16b9f7acd4f3, type: 3}
    cost: 150
    integerData: 0
  - id: 1
    displaySprite: {fileID: 21300000, guid: 03f8b7f80e178b443b8b76468ae94cbb, type: 3}
    cost: 300
    integerData: 1
  - id: 2
    displaySprite: {fileID: 21300000, guid: a7d45d8af59488e46b07283aea5bfc5c, type: 3}
    cost: 500
    integerData: 2
  - id: 3
    displaySprite: {fileID: 21300000, guid: 7c2e1154b7610854a8b6117249ac47ce, type: 3}
    cost: 1000
    integerData: 3
  - id: 4
    displaySprite: {fileID: 21300000, guid: a37fc7bc0e45d7243bca5754e2869ca8, type: 3}
    cost: -1
    integerData: 4
  - id: 5
    displaySprite: {fileID: 21300000, guid: c6e07c93c97c0b146bc693379292a64d, type: 3}
    cost: -1
    integerData: 5
  - id: 6
    displaySprite: {fileID: 21300000, guid: 649449a9215a318448a4db676ade1ce7, type: 3}
    cost: -1
    integerData: 6
