%YAML 1.1
%TAG !u! tag:unity3d.com,2011:
--- !u!21 &2100000
Material:
  serializedVersion: 6
  m_ObjectHideFlags: 0
  m_CorrespondingSourceObject: {fileID: 0}
  m_PrefabInstance: {fileID: 0}
  m_PrefabAsset: {fileID: 0}
  m_Name: Baby_Toon_Beach
  m_Shader: {fileID: -6465566751694194690, guid: d856327a2f6b02345b508d7374e13704,
    type: 3}
  m_ShaderKeywords: 
  m_LightmapFlags: 4
  m_EnableInstancingVariants: 0
  m_DoubleSidedGI: 0
  m_CustomRenderQueue: -1
  stringTagMap: {}
  disabledShaderPasses: []
  m_SavedProperties:
    serializedVersion: 3
    m_TexEnvs:
    - MainTex:
        m_Texture: {fileID: 2800000, guid: 17c7bae06fca521479a5bd84133073f0, type: 3}
        m_Scale: {x: 1, y: 1}
        m_Offset: {x: 0, y: 0}
    - Mask_R_Emission:
        m_Texture: {fileID: 0}
        m_Scale: {x: 1, y: 1}
        m_Offset: {x: 0, y: 0}
    - unity_Lightmaps:
        m_Texture: {fileID: 0}
        m_Scale: {x: 1, y: 1}
        m_Offset: {x: 0, y: 0}
    - unity_LightmapsInd:
        m_Texture: {fileID: 0}
        m_Scale: {x: 1, y: 1}
        m_Offset: {x: 0, y: 0}
    - unity_ShadowMasks:
        m_Texture: {fileID: 0}
        m_Scale: {x: 1, y: 1}
        m_Offset: {x: 0, y: 0}
    m_Ints: []
    m_Floats:
    - Brightness_Rim: 0.93
    - Rim_Power: 0
    - Toon_Ramp_Offset: 0.479
    - Toon_Ramp_Smoothness: 0
    m_Colors:
    - Toon_Ramp_Tint: {r: 1, g: 1, b: 1, a: 1}
    - _Color: {r: 0.7735849, g: 0.7735849, b: 0.7735849, a: 1}
  m_BuildTextureStacks: []
