%YAML 1.1
%TAG !u! tag:unity3d.com,2011:
--- !u!114 &383287994
MonoBehaviour:
  m_ObjectHideFlags: 0
  m_CorrespondingSourceObject: {fileID: 0}
  m_PrefabInstance: {fileID: 0}
  m_PrefabAsset: {fileID: 0}
  m_GameObject: {fileID: 7439401641395053053}
  m_Enabled: 1
  m_EditorHideFlags: 0
  m_Script: {fileID: 11500000, guid: b59311ee226fd3e4abc5084900226b81, type: 3}
  m_Name: 
  m_EditorClassIdentifier: 
  treadmillAnim: {fileID: 0}
--- !u!114 &531063959815477538
MonoBehaviour:
  m_ObjectHideFlags: 0
  m_CorrespondingSourceObject: {fileID: 0}
  m_PrefabInstance: {fileID: 0}
  m_PrefabAsset: {fileID: 0}
  m_GameObject: {fileID: 7439401641395053053}
  m_Enabled: 1
  m_EditorHideFlags: 0
  m_Script: {fileID: 11500000, guid: a76e87496dfb67b4eaf923afbb325f74, type: 3}
  m_Name: 
  m_EditorClassIdentifier: 
  captureDistance: 0.3
  chaseSpeed: 2
  turnTime: 0.2
  turnAngle: 0
  walkSpeed: 1
  turnLerpRate: 3
--- !u!1001 &3492303271416711269
PrefabInstance:
  m_ObjectHideFlags: 0
  serializedVersion: 2
  m_Modification:
    m_TransformParent: {fileID: 0}
    m_Modifications:
    - target: {fileID: 157286198313597451, guid: 69d41f98bb7d12c44ad5c53a231814ca,
        type: 3}
      propertyPath: m_LocalEulerAnglesHint.x
      value: 1.6300178
      objectReference: {fileID: 0}
    - target: {fileID: 157286198313597451, guid: 69d41f98bb7d12c44ad5c53a231814ca,
        type: 3}
      propertyPath: m_LocalEulerAnglesHint.y
      value: 70.24273
      objectReference: {fileID: 0}
    - target: {fileID: 157286198313597451, guid: 69d41f98bb7d12c44ad5c53a231814ca,
        type: 3}
      propertyPath: m_LocalEulerAnglesHint.z
      value: -48.98024
      objectReference: {fileID: 0}
    - target: {fileID: 401418257530235588, guid: 69d41f98bb7d12c44ad5c53a231814ca,
        type: 3}
      propertyPath: m_LocalEulerAnglesHint.x
      value: -13.86281
      objectReference: {fileID: 0}
    - target: {fileID: 401418257530235588, guid: 69d41f98bb7d12c44ad5c53a231814ca,
        type: 3}
      propertyPath: m_LocalEulerAnglesHint.y
      value: -10.296134
      objectReference: {fileID: 0}
    - target: {fileID: 401418257530235588, guid: 69d41f98bb7d12c44ad5c53a231814ca,
        type: 3}
      propertyPath: m_LocalEulerAnglesHint.z
      value: 23.193516
      objectReference: {fileID: 0}
    - target: {fileID: 506019899162949039, guid: 69d41f98bb7d12c44ad5c53a231814ca,
        type: 3}
      propertyPath: m_LocalEulerAnglesHint.x
      value: 3.3575077
      objectReference: {fileID: 0}
    - target: {fileID: 506019899162949039, guid: 69d41f98bb7d12c44ad5c53a231814ca,
        type: 3}
      propertyPath: m_LocalEulerAnglesHint.y
      value: 0.82051045
      objectReference: {fileID: 0}
    - target: {fileID: 506019899162949039, guid: 69d41f98bb7d12c44ad5c53a231814ca,
        type: 3}
      propertyPath: m_LocalEulerAnglesHint.z
      value: 25.67212
      objectReference: {fileID: 0}
    - target: {fileID: 1381037401072799330, guid: 69d41f98bb7d12c44ad5c53a231814ca,
        type: 3}
      propertyPath: m_LocalEulerAnglesHint.x
      value: 25.974182
      objectReference: {fileID: 0}
    - target: {fileID: 1381037401072799330, guid: 69d41f98bb7d12c44ad5c53a231814ca,
        type: 3}
      propertyPath: m_LocalEulerAnglesHint.y
      value: -2.9296904
      objectReference: {fileID: 0}
    - target: {fileID: 1381037401072799330, guid: 69d41f98bb7d12c44ad5c53a231814ca,
        type: 3}
      propertyPath: m_LocalEulerAnglesHint.z
      value: -5.21335
      objectReference: {fileID: 0}
    - target: {fileID: 1720501569543790640, guid: 69d41f98bb7d12c44ad5c53a231814ca,
        type: 3}
      propertyPath: m_LocalEulerAnglesHint.x
      value: 7.9429884
      objectReference: {fileID: 0}
    - target: {fileID: 1720501569543790640, guid: 69d41f98bb7d12c44ad5c53a231814ca,
        type: 3}
      propertyPath: m_LocalEulerAnglesHint.y
      value: 0.050713502
      objectReference: {fileID: 0}
    - target: {fileID: 1720501569543790640, guid: 69d41f98bb7d12c44ad5c53a231814ca,
        type: 3}
      propertyPath: m_LocalEulerAnglesHint.z
      value: 0.77175045
      objectReference: {fileID: 0}
    - target: {fileID: 1855048850067930887, guid: 69d41f98bb7d12c44ad5c53a231814ca,
        type: 3}
      propertyPath: m_LocalEulerAnglesHint.x
      value: 2.9961379
      objectReference: {fileID: 0}
    - target: {fileID: 1855048850067930887, guid: 69d41f98bb7d12c44ad5c53a231814ca,
        type: 3}
      propertyPath: m_LocalEulerAnglesHint.y
      value: -0.60998213
      objectReference: {fileID: 0}
    - target: {fileID: 1855048850067930887, guid: 69d41f98bb7d12c44ad5c53a231814ca,
        type: 3}
      propertyPath: m_LocalEulerAnglesHint.z
      value: -28.991245
      objectReference: {fileID: 0}
    - target: {fileID: 2042112976443633371, guid: 69d41f98bb7d12c44ad5c53a231814ca,
        type: 3}
      propertyPath: m_LocalEulerAnglesHint.x
      value: 16.49598
      objectReference: {fileID: 0}
    - target: {fileID: 2042112976443633371, guid: 69d41f98bb7d12c44ad5c53a231814ca,
        type: 3}
      propertyPath: m_LocalEulerAnglesHint.y
      value: 4.274304
      objectReference: {fileID: 0}
    - target: {fileID: 2042112976443633371, guid: 69d41f98bb7d12c44ad5c53a231814ca,
        type: 3}
      propertyPath: m_LocalEulerAnglesHint.z
      value: 24.979288
      objectReference: {fileID: 0}
    - target: {fileID: 2323227561190498880, guid: 69d41f98bb7d12c44ad5c53a231814ca,
        type: 3}
      propertyPath: m_LocalPosition.z
      value: 0.16
      objectReference: {fileID: 0}
    - target: {fileID: 2521343913692924654, guid: 69d41f98bb7d12c44ad5c53a231814ca,
        type: 3}
      propertyPath: m_LocalEulerAnglesHint.x
      value: 4.12338
      objectReference: {fileID: 0}
    - target: {fileID: 2521343913692924654, guid: 69d41f98bb7d12c44ad5c53a231814ca,
        type: 3}
      propertyPath: m_LocalEulerAnglesHint.y
      value: -1.0374323
      objectReference: {fileID: 0}
    - target: {fileID: 2521343913692924654, guid: 69d41f98bb7d12c44ad5c53a231814ca,
        type: 3}
      propertyPath: m_LocalEulerAnglesHint.z
      value: 16.52699
      objectReference: {fileID: 0}
    - target: {fileID: 2522073591173633543, guid: 69d41f98bb7d12c44ad5c53a231814ca,
        type: 3}
      propertyPath: m_LocalEulerAnglesHint.x
      value: 1.0055485
      objectReference: {fileID: 0}
    - target: {fileID: 2522073591173633543, guid: 69d41f98bb7d12c44ad5c53a231814ca,
        type: 3}
      propertyPath: m_LocalEulerAnglesHint.y
      value: 0.7666277
      objectReference: {fileID: 0}
    - target: {fileID: 2522073591173633543, guid: 69d41f98bb7d12c44ad5c53a231814ca,
        type: 3}
      propertyPath: m_LocalEulerAnglesHint.z
      value: -5.9983664
      objectReference: {fileID: 0}
    - target: {fileID: 2910709239899125659, guid: 69d41f98bb7d12c44ad5c53a231814ca,
        type: 3}
      propertyPath: m_LocalEulerAnglesHint.x
      value: 70.051636
      objectReference: {fileID: 0}
    - target: {fileID: 2910709239899125659, guid: 69d41f98bb7d12c44ad5c53a231814ca,
        type: 3}
      propertyPath: m_LocalEulerAnglesHint.y
      value: -103.19012
      objectReference: {fileID: 0}
    - target: {fileID: 2910709239899125659, guid: 69d41f98bb7d12c44ad5c53a231814ca,
        type: 3}
      propertyPath: m_LocalEulerAnglesHint.z
      value: 178.72351
      objectReference: {fileID: 0}
    - target: {fileID: 2937487195183128963, guid: 69d41f98bb7d12c44ad5c53a231814ca,
        type: 3}
      propertyPath: m_LocalEulerAnglesHint.x
      value: 0.5211211
      objectReference: {fileID: 0}
    - target: {fileID: 2937487195183128963, guid: 69d41f98bb7d12c44ad5c53a231814ca,
        type: 3}
      propertyPath: m_LocalEulerAnglesHint.y
      value: 0.01210758
      objectReference: {fileID: 0}
    - target: {fileID: 2937487195183128963, guid: 69d41f98bb7d12c44ad5c53a231814ca,
        type: 3}
      propertyPath: m_LocalEulerAnglesHint.z
      value: 0.038654715
      objectReference: {fileID: 0}
    - target: {fileID: 3023502401824817848, guid: 69d41f98bb7d12c44ad5c53a231814ca,
        type: 3}
      propertyPath: m_LocalEulerAnglesHint.x
      value: 15.124815
      objectReference: {fileID: 0}
    - target: {fileID: 3023502401824817848, guid: 69d41f98bb7d12c44ad5c53a231814ca,
        type: 3}
      propertyPath: m_LocalEulerAnglesHint.y
      value: 0.045243263
      objectReference: {fileID: 0}
    - target: {fileID: 3023502401824817848, guid: 69d41f98bb7d12c44ad5c53a231814ca,
        type: 3}
      propertyPath: m_LocalEulerAnglesHint.z
      value: 2.055491
      objectReference: {fileID: 0}
    - target: {fileID: 3062532220860739016, guid: 69d41f98bb7d12c44ad5c53a231814ca,
        type: 3}
      propertyPath: m_LocalEulerAnglesHint.x
      value: 26.494377
      objectReference: {fileID: 0}
    - target: {fileID: 3062532220860739016, guid: 69d41f98bb7d12c44ad5c53a231814ca,
        type: 3}
      propertyPath: m_LocalEulerAnglesHint.y
      value: -16.759922
      objectReference: {fileID: 0}
    - target: {fileID: 3062532220860739016, guid: 69d41f98bb7d12c44ad5c53a231814ca,
        type: 3}
      propertyPath: m_LocalEulerAnglesHint.z
      value: -26.803993
      objectReference: {fileID: 0}
    - target: {fileID: 3131712052693334266, guid: 69d41f98bb7d12c44ad5c53a231814ca,
        type: 3}
      propertyPath: m_IsActive
      value: 0
      objectReference: {fileID: 0}
    - target: {fileID: 3312858808207746899, guid: 69d41f98bb7d12c44ad5c53a231814ca,
        type: 3}
      propertyPath: m_LocalEulerAnglesHint.x
      value: -11.703791
      objectReference: {fileID: 0}
    - target: {fileID: 3312858808207746899, guid: 69d41f98bb7d12c44ad5c53a231814ca,
        type: 3}
      propertyPath: m_LocalEulerAnglesHint.y
      value: 21.153679
      objectReference: {fileID: 0}
    - target: {fileID: 3312858808207746899, guid: 69d41f98bb7d12c44ad5c53a231814ca,
        type: 3}
      propertyPath: m_LocalEulerAnglesHint.z
      value: -4.5452642
      objectReference: {fileID: 0}
    - target: {fileID: 3666569971504698790, guid: 69d41f98bb7d12c44ad5c53a231814ca,
        type: 3}
      propertyPath: m_LocalEulerAnglesHint.x
      value: -0.00001562378
      objectReference: {fileID: 0}
    - target: {fileID: 3666569971504698790, guid: 69d41f98bb7d12c44ad5c53a231814ca,
        type: 3}
      propertyPath: m_LocalEulerAnglesHint.y
      value: -0.0001574255
      objectReference: {fileID: 0}
    - target: {fileID: 3666569971504698790, guid: 69d41f98bb7d12c44ad5c53a231814ca,
        type: 3}
      propertyPath: m_LocalEulerAnglesHint.z
      value: -0.17252173
      objectReference: {fileID: 0}
    - target: {fileID: 3743245536682731303, guid: 69d41f98bb7d12c44ad5c53a231814ca,
        type: 3}
      propertyPath: m_LocalEulerAnglesHint.x
      value: -8.637217
      objectReference: {fileID: 0}
    - target: {fileID: 3743245536682731303, guid: 69d41f98bb7d12c44ad5c53a231814ca,
        type: 3}
      propertyPath: m_LocalEulerAnglesHint.y
      value: 0.06877695
      objectReference: {fileID: 0}
    - target: {fileID: 3743245536682731303, guid: 69d41f98bb7d12c44ad5c53a231814ca,
        type: 3}
      propertyPath: m_LocalEulerAnglesHint.z
      value: -0.90724856
      objectReference: {fileID: 0}
    - target: {fileID: 3954189293686069978, guid: 69d41f98bb7d12c44ad5c53a231814ca,
        type: 3}
      propertyPath: m_LocalEulerAnglesHint.x
      value: 1.0205243
      objectReference: {fileID: 0}
    - target: {fileID: 3954189293686069978, guid: 69d41f98bb7d12c44ad5c53a231814ca,
        type: 3}
      propertyPath: m_LocalEulerAnglesHint.y
      value: 0.004355535
      objectReference: {fileID: 0}
    - target: {fileID: 3954189293686069978, guid: 69d41f98bb7d12c44ad5c53a231814ca,
        type: 3}
      propertyPath: m_LocalEulerAnglesHint.z
      value: 0.01798351
      objectReference: {fileID: 0}
    - target: {fileID: 4006970789780090723, guid: 69d41f98bb7d12c44ad5c53a231814ca,
        type: 3}
      propertyPath: m_LocalEulerAnglesHint.x
      value: 0.95166975
      objectReference: {fileID: 0}
    - target: {fileID: 4006970789780090723, guid: 69d41f98bb7d12c44ad5c53a231814ca,
        type: 3}
      propertyPath: m_LocalEulerAnglesHint.y
      value: -0.000774795
      objectReference: {fileID: 0}
    - target: {fileID: 4006970789780090723, guid: 69d41f98bb7d12c44ad5c53a231814ca,
        type: 3}
      propertyPath: m_LocalEulerAnglesHint.z
      value: -0.021848379
      objectReference: {fileID: 0}
    - target: {fileID: 4014235888633018523, guid: 69d41f98bb7d12c44ad5c53a231814ca,
        type: 3}
      propertyPath: m_LocalEulerAnglesHint.x
      value: 27.238823
      objectReference: {fileID: 0}
    - target: {fileID: 4014235888633018523, guid: 69d41f98bb7d12c44ad5c53a231814ca,
        type: 3}
      propertyPath: m_LocalEulerAnglesHint.y
      value: -20.10862
      objectReference: {fileID: 0}
    - target: {fileID: 4014235888633018523, guid: 69d41f98bb7d12c44ad5c53a231814ca,
        type: 3}
      propertyPath: m_LocalEulerAnglesHint.z
      value: -13.478624
      objectReference: {fileID: 0}
    - target: {fileID: 4210937247578968436, guid: 69d41f98bb7d12c44ad5c53a231814ca,
        type: 3}
      propertyPath: m_LocalEulerAnglesHint.x
      value: 0.46883184
      objectReference: {fileID: 0}
    - target: {fileID: 4210937247578968436, guid: 69d41f98bb7d12c44ad5c53a231814ca,
        type: 3}
      propertyPath: m_LocalEulerAnglesHint.y
      value: 0.088438
      objectReference: {fileID: 0}
    - target: {fileID: 4210937247578968436, guid: 69d41f98bb7d12c44ad5c53a231814ca,
        type: 3}
      propertyPath: m_LocalEulerAnglesHint.z
      value: -10.86495
      objectReference: {fileID: 0}
    - target: {fileID: 4272362658781974601, guid: 69d41f98bb7d12c44ad5c53a231814ca,
        type: 3}
      propertyPath: m_LocalEulerAnglesHint.x
      value: 1.9858236
      objectReference: {fileID: 0}
    - target: {fileID: 4272362658781974601, guid: 69d41f98bb7d12c44ad5c53a231814ca,
        type: 3}
      propertyPath: m_LocalEulerAnglesHint.y
      value: 0.35006055
      objectReference: {fileID: 0}
    - target: {fileID: 4272362658781974601, guid: 69d41f98bb7d12c44ad5c53a231814ca,
        type: 3}
      propertyPath: m_LocalEulerAnglesHint.z
      value: 7.8955717
      objectReference: {fileID: 0}
    - target: {fileID: 4393728839407471065, guid: 69d41f98bb7d12c44ad5c53a231814ca,
        type: 3}
      propertyPath: m_LocalEulerAnglesHint.x
      value: -14.813992
      objectReference: {fileID: 0}
    - target: {fileID: 4393728839407471065, guid: 69d41f98bb7d12c44ad5c53a231814ca,
        type: 3}
      propertyPath: m_LocalEulerAnglesHint.y
      value: 1.327821
      objectReference: {fileID: 0}
    - target: {fileID: 4393728839407471065, guid: 69d41f98bb7d12c44ad5c53a231814ca,
        type: 3}
      propertyPath: m_LocalEulerAnglesHint.z
      value: -2.9517312
      objectReference: {fileID: 0}
    - target: {fileID: 4683885963143094156, guid: 69d41f98bb7d12c44ad5c53a231814ca,
        type: 3}
      propertyPath: m_LocalEulerAnglesHint.x
      value: 7.648432
      objectReference: {fileID: 0}
    - target: {fileID: 4683885963143094156, guid: 69d41f98bb7d12c44ad5c53a231814ca,
        type: 3}
      propertyPath: m_LocalEulerAnglesHint.y
      value: -81.79337
      objectReference: {fileID: 0}
    - target: {fileID: 4683885963143094156, guid: 69d41f98bb7d12c44ad5c53a231814ca,
        type: 3}
      propertyPath: m_LocalEulerAnglesHint.z
      value: 45.304325
      objectReference: {fileID: 0}
    - target: {fileID: 4700669080922133042, guid: 69d41f98bb7d12c44ad5c53a231814ca,
        type: 3}
      propertyPath: m_LocalEulerAnglesHint.x
      value: 0.6417358
      objectReference: {fileID: 0}
    - target: {fileID: 4700669080922133042, guid: 69d41f98bb7d12c44ad5c53a231814ca,
        type: 3}
      propertyPath: m_LocalEulerAnglesHint.y
      value: -1.5533926
      objectReference: {fileID: 0}
    - target: {fileID: 4700669080922133042, guid: 69d41f98bb7d12c44ad5c53a231814ca,
        type: 3}
      propertyPath: m_LocalEulerAnglesHint.z
      value: 0.34397647
      objectReference: {fileID: 0}
    - target: {fileID: 4821922031704019913, guid: 69d41f98bb7d12c44ad5c53a231814ca,
        type: 3}
      propertyPath: m_LocalEulerAnglesHint.x
      value: 8.119921
      objectReference: {fileID: 0}
    - target: {fileID: 4821922031704019913, guid: 69d41f98bb7d12c44ad5c53a231814ca,
        type: 3}
      propertyPath: m_LocalEulerAnglesHint.y
      value: 3.5354872
      objectReference: {fileID: 0}
    - target: {fileID: 4821922031704019913, guid: 69d41f98bb7d12c44ad5c53a231814ca,
        type: 3}
      propertyPath: m_LocalEulerAnglesHint.z
      value: 46.93428
      objectReference: {fileID: 0}
    - target: {fileID: 5027932294165973767, guid: 69d41f98bb7d12c44ad5c53a231814ca,
        type: 3}
      propertyPath: m_LocalEulerAnglesHint.x
      value: -4.531891
      objectReference: {fileID: 0}
    - target: {fileID: 5027932294165973767, guid: 69d41f98bb7d12c44ad5c53a231814ca,
        type: 3}
      propertyPath: m_LocalEulerAnglesHint.y
      value: -6.875495
      objectReference: {fileID: 0}
    - target: {fileID: 5027932294165973767, guid: 69d41f98bb7d12c44ad5c53a231814ca,
        type: 3}
      propertyPath: m_LocalEulerAnglesHint.z
      value: 9.589531
      objectReference: {fileID: 0}
    - target: {fileID: 5139892234117998524, guid: 69d41f98bb7d12c44ad5c53a231814ca,
        type: 3}
      propertyPath: m_LocalEulerAnglesHint.x
      value: -9.097535
      objectReference: {fileID: 0}
    - target: {fileID: 5139892234117998524, guid: 69d41f98bb7d12c44ad5c53a231814ca,
        type: 3}
      propertyPath: m_LocalEulerAnglesHint.y
      value: 2.105564
      objectReference: {fileID: 0}
    - target: {fileID: 5139892234117998524, guid: 69d41f98bb7d12c44ad5c53a231814ca,
        type: 3}
      propertyPath: m_LocalEulerAnglesHint.z
      value: -3.9108682
      objectReference: {fileID: 0}
    - target: {fileID: 5172079937753225527, guid: 69d41f98bb7d12c44ad5c53a231814ca,
        type: 3}
      propertyPath: m_LocalEulerAnglesHint.x
      value: 24.799175
      objectReference: {fileID: 0}
    - target: {fileID: 5172079937753225527, guid: 69d41f98bb7d12c44ad5c53a231814ca,
        type: 3}
      propertyPath: m_LocalEulerAnglesHint.y
      value: 13.197992
      objectReference: {fileID: 0}
    - target: {fileID: 5172079937753225527, guid: 69d41f98bb7d12c44ad5c53a231814ca,
        type: 3}
      propertyPath: m_LocalEulerAnglesHint.z
      value: 21.11166
      objectReference: {fileID: 0}
    - target: {fileID: 5337734846815951781, guid: 69d41f98bb7d12c44ad5c53a231814ca,
        type: 3}
      propertyPath: m_LocalEulerAnglesHint.x
      value: -9.29294
      objectReference: {fileID: 0}
    - target: {fileID: 5337734846815951781, guid: 69d41f98bb7d12c44ad5c53a231814ca,
        type: 3}
      propertyPath: m_LocalEulerAnglesHint.y
      value: 9.260986
      objectReference: {fileID: 0}
    - target: {fileID: 5337734846815951781, guid: 69d41f98bb7d12c44ad5c53a231814ca,
        type: 3}
      propertyPath: m_LocalEulerAnglesHint.z
      value: -9.34771
      objectReference: {fileID: 0}
    - target: {fileID: 5387512143315100698, guid: 69d41f98bb7d12c44ad5c53a231814ca,
        type: 3}
      propertyPath: m_LocalEulerAnglesHint.x
      value: -15.578596
      objectReference: {fileID: 0}
    - target: {fileID: 5387512143315100698, guid: 69d41f98bb7d12c44ad5c53a231814ca,
        type: 3}
      propertyPath: m_LocalEulerAnglesHint.y
      value: -16.133684
      objectReference: {fileID: 0}
    - target: {fileID: 5387512143315100698, guid: 69d41f98bb7d12c44ad5c53a231814ca,
        type: 3}
      propertyPath: m_LocalEulerAnglesHint.z
      value: 150.83426
      objectReference: {fileID: 0}
    - target: {fileID: 5579762542174679182, guid: 69d41f98bb7d12c44ad5c53a231814ca,
        type: 3}
      propertyPath: m_LocalEulerAnglesHint.x
      value: -1.961912e-15
      objectReference: {fileID: 0}
    - target: {fileID: 5643806375267339450, guid: 69d41f98bb7d12c44ad5c53a231814ca,
        type: 3}
      propertyPath: m_LocalEulerAnglesHint.x
      value: -10.261875
      objectReference: {fileID: 0}
    - target: {fileID: 5643806375267339450, guid: 69d41f98bb7d12c44ad5c53a231814ca,
        type: 3}
      propertyPath: m_LocalEulerAnglesHint.y
      value: -2.0607305
      objectReference: {fileID: 0}
    - target: {fileID: 5643806375267339450, guid: 69d41f98bb7d12c44ad5c53a231814ca,
        type: 3}
      propertyPath: m_LocalEulerAnglesHint.z
      value: 0.45344293
      objectReference: {fileID: 0}
    - target: {fileID: 5710375852220269302, guid: 69d41f98bb7d12c44ad5c53a231814ca,
        type: 3}
      propertyPath: m_LocalEulerAnglesHint.x
      value: -13.569622
      objectReference: {fileID: 0}
    - target: {fileID: 5710375852220269302, guid: 69d41f98bb7d12c44ad5c53a231814ca,
        type: 3}
      propertyPath: m_LocalEulerAnglesHint.y
      value: 0.4730215
      objectReference: {fileID: 0}
    - target: {fileID: 5710375852220269302, guid: 69d41f98bb7d12c44ad5c53a231814ca,
        type: 3}
      propertyPath: m_LocalEulerAnglesHint.z
      value: -10.599114
      objectReference: {fileID: 0}
    - target: {fileID: 6021941688554454717, guid: 69d41f98bb7d12c44ad5c53a231814ca,
        type: 3}
      propertyPath: m_LocalEulerAnglesHint.x
      value: 38.530434
      objectReference: {fileID: 0}
    - target: {fileID: 6021941688554454717, guid: 69d41f98bb7d12c44ad5c53a231814ca,
        type: 3}
      propertyPath: m_LocalEulerAnglesHint.y
      value: 4.806137
      objectReference: {fileID: 0}
    - target: {fileID: 6021941688554454717, guid: 69d41f98bb7d12c44ad5c53a231814ca,
        type: 3}
      propertyPath: m_LocalEulerAnglesHint.z
      value: -17.600042
      objectReference: {fileID: 0}
    - target: {fileID: 6289619042830723480, guid: 69d41f98bb7d12c44ad5c53a231814ca,
        type: 3}
      propertyPath: m_Name
      value: Boy
      objectReference: {fileID: 0}
    - target: {fileID: 6289619042830723483, guid: 69d41f98bb7d12c44ad5c53a231814ca,
        type: 3}
      propertyPath: m_RootOrder
      value: 0
      objectReference: {fileID: 0}
    - target: {fileID: 6289619042830723483, guid: 69d41f98bb7d12c44ad5c53a231814ca,
        type: 3}
      propertyPath: m_LocalPosition.x
      value: 0
      objectReference: {fileID: 0}
    - target: {fileID: 6289619042830723483, guid: 69d41f98bb7d12c44ad5c53a231814ca,
        type: 3}
      propertyPath: m_LocalPosition.y
      value: 0
      objectReference: {fileID: 0}
    - target: {fileID: 6289619042830723483, guid: 69d41f98bb7d12c44ad5c53a231814ca,
        type: 3}
      propertyPath: m_LocalPosition.z
      value: 0.62
      objectReference: {fileID: 0}
    - target: {fileID: 6289619042830723483, guid: 69d41f98bb7d12c44ad5c53a231814ca,
        type: 3}
      propertyPath: m_LocalRotation.w
      value: 0
      objectReference: {fileID: 0}
    - target: {fileID: 6289619042830723483, guid: 69d41f98bb7d12c44ad5c53a231814ca,
        type: 3}
      propertyPath: m_LocalRotation.x
      value: 0
      objectReference: {fileID: 0}
    - target: {fileID: 6289619042830723483, guid: 69d41f98bb7d12c44ad5c53a231814ca,
        type: 3}
      propertyPath: m_LocalRotation.y
      value: 1
      objectReference: {fileID: 0}
    - target: {fileID: 6289619042830723483, guid: 69d41f98bb7d12c44ad5c53a231814ca,
        type: 3}
      propertyPath: m_LocalRotation.z
      value: 0
      objectReference: {fileID: 0}
    - target: {fileID: 6289619042830723483, guid: 69d41f98bb7d12c44ad5c53a231814ca,
        type: 3}
      propertyPath: m_LocalEulerAnglesHint.x
      value: 0
      objectReference: {fileID: 0}
    - target: {fileID: 6289619042830723483, guid: 69d41f98bb7d12c44ad5c53a231814ca,
        type: 3}
      propertyPath: m_LocalEulerAnglesHint.y
      value: 180
      objectReference: {fileID: 0}
    - target: {fileID: 6289619042830723483, guid: 69d41f98bb7d12c44ad5c53a231814ca,
        type: 3}
      propertyPath: m_LocalEulerAnglesHint.z
      value: 0
      objectReference: {fileID: 0}
    - target: {fileID: 6294498828560748266, guid: 69d41f98bb7d12c44ad5c53a231814ca,
        type: 3}
      propertyPath: m_LocalEulerAnglesHint.x
      value: 13.999596
      objectReference: {fileID: 0}
    - target: {fileID: 6294498828560748266, guid: 69d41f98bb7d12c44ad5c53a231814ca,
        type: 3}
      propertyPath: m_LocalEulerAnglesHint.y
      value: 0.14857428
      objectReference: {fileID: 0}
    - target: {fileID: 6294498828560748266, guid: 69d41f98bb7d12c44ad5c53a231814ca,
        type: 3}
      propertyPath: m_LocalEulerAnglesHint.z
      value: 1.2573843
      objectReference: {fileID: 0}
    - target: {fileID: 6370058367553870939, guid: 69d41f98bb7d12c44ad5c53a231814ca,
        type: 3}
      propertyPath: m_LocalEulerAnglesHint.x
      value: 10.453656
      objectReference: {fileID: 0}
    - target: {fileID: 6370058367553870939, guid: 69d41f98bb7d12c44ad5c53a231814ca,
        type: 3}
      propertyPath: m_LocalEulerAnglesHint.y
      value: 18.134443
      objectReference: {fileID: 0}
    - target: {fileID: 6370058367553870939, guid: 69d41f98bb7d12c44ad5c53a231814ca,
        type: 3}
      propertyPath: m_LocalEulerAnglesHint.z
      value: 4.102354
      objectReference: {fileID: 0}
    - target: {fileID: 6595625986710773019, guid: 69d41f98bb7d12c44ad5c53a231814ca,
        type: 3}
      propertyPath: m_IsActive
      value: 1
      objectReference: {fileID: 0}
    - target: {fileID: 6678566369367389518, guid: 69d41f98bb7d12c44ad5c53a231814ca,
        type: 3}
      propertyPath: m_LocalEulerAnglesHint.x
      value: -8.461954
      objectReference: {fileID: 0}
    - target: {fileID: 6678566369367389518, guid: 69d41f98bb7d12c44ad5c53a231814ca,
        type: 3}
      propertyPath: m_LocalEulerAnglesHint.y
      value: 0.062135287
      objectReference: {fileID: 0}
    - target: {fileID: 6678566369367389518, guid: 69d41f98bb7d12c44ad5c53a231814ca,
        type: 3}
      propertyPath: m_LocalEulerAnglesHint.z
      value: -0.8667758
      objectReference: {fileID: 0}
    - target: {fileID: 6916087273497894560, guid: 69d41f98bb7d12c44ad5c53a231814ca,
        type: 3}
      propertyPath: m_LocalEulerAnglesHint.x
      value: -1.8725342
      objectReference: {fileID: 0}
    - target: {fileID: 6916087273497894560, guid: 69d41f98bb7d12c44ad5c53a231814ca,
        type: 3}
      propertyPath: m_LocalEulerAnglesHint.y
      value: -0.08010439
      objectReference: {fileID: 0}
    - target: {fileID: 6916087273497894560, guid: 69d41f98bb7d12c44ad5c53a231814ca,
        type: 3}
      propertyPath: m_LocalEulerAnglesHint.z
      value: -0.0021634987
      objectReference: {fileID: 0}
    - target: {fileID: 6925915309584368882, guid: 69d41f98bb7d12c44ad5c53a231814ca,
        type: 3}
      propertyPath: m_LocalEulerAnglesHint.x
      value: 0.81548446
      objectReference: {fileID: 0}
    - target: {fileID: 6925915309584368882, guid: 69d41f98bb7d12c44ad5c53a231814ca,
        type: 3}
      propertyPath: m_LocalEulerAnglesHint.y
      value: 0.0089403605
      objectReference: {fileID: 0}
    - target: {fileID: 6925915309584368882, guid: 69d41f98bb7d12c44ad5c53a231814ca,
        type: 3}
      propertyPath: m_LocalEulerAnglesHint.z
      value: 0.14281666
      objectReference: {fileID: 0}
    - target: {fileID: 7009700531965568451, guid: 69d41f98bb7d12c44ad5c53a231814ca,
        type: 3}
      propertyPath: m_LocalEulerAnglesHint.x
      value: 10.183177
      objectReference: {fileID: 0}
    - target: {fileID: 7009700531965568451, guid: 69d41f98bb7d12c44ad5c53a231814ca,
        type: 3}
      propertyPath: m_LocalEulerAnglesHint.y
      value: -12.390465
      objectReference: {fileID: 0}
    - target: {fileID: 7009700531965568451, guid: 69d41f98bb7d12c44ad5c53a231814ca,
        type: 3}
      propertyPath: m_LocalEulerAnglesHint.z
      value: -68.61115
      objectReference: {fileID: 0}
    - target: {fileID: 7373282556254553657, guid: 69d41f98bb7d12c44ad5c53a231814ca,
        type: 3}
      propertyPath: m_LocalEulerAnglesHint.x
      value: -0.13102174
      objectReference: {fileID: 0}
    - target: {fileID: 7373282556254553657, guid: 69d41f98bb7d12c44ad5c53a231814ca,
        type: 3}
      propertyPath: m_LocalEulerAnglesHint.y
      value: 0.0029954726
      objectReference: {fileID: 0}
    - target: {fileID: 7373282556254553657, guid: 69d41f98bb7d12c44ad5c53a231814ca,
        type: 3}
      propertyPath: m_LocalEulerAnglesHint.z
      value: 0.13806997
      objectReference: {fileID: 0}
    - target: {fileID: 7376943346812699451, guid: 69d41f98bb7d12c44ad5c53a231814ca,
        type: 3}
      propertyPath: m_LocalEulerAnglesHint.x
      value: 0.00001603135
      objectReference: {fileID: 0}
    - target: {fileID: 7376943346812699451, guid: 69d41f98bb7d12c44ad5c53a231814ca,
        type: 3}
      propertyPath: m_LocalEulerAnglesHint.y
      value: -0.0023913207
      objectReference: {fileID: 0}
    - target: {fileID: 7376943346812699451, guid: 69d41f98bb7d12c44ad5c53a231814ca,
        type: 3}
      propertyPath: m_LocalEulerAnglesHint.z
      value: -0.057916116
      objectReference: {fileID: 0}
    - target: {fileID: 7417747602804634174, guid: 69d41f98bb7d12c44ad5c53a231814ca,
        type: 3}
      propertyPath: m_LocalEulerAnglesHint.x
      value: -21.599909
      objectReference: {fileID: 0}
    - target: {fileID: 7417747602804634174, guid: 69d41f98bb7d12c44ad5c53a231814ca,
        type: 3}
      propertyPath: m_LocalEulerAnglesHint.y
      value: 15.693556
      objectReference: {fileID: 0}
    - target: {fileID: 7417747602804634174, guid: 69d41f98bb7d12c44ad5c53a231814ca,
        type: 3}
      propertyPath: m_LocalEulerAnglesHint.z
      value: -152.10683
      objectReference: {fileID: 0}
    - target: {fileID: 7465145723338604157, guid: 69d41f98bb7d12c44ad5c53a231814ca,
        type: 3}
      propertyPath: m_LocalEulerAnglesHint.x
      value: 23.884277
      objectReference: {fileID: 0}
    - target: {fileID: 7465145723338604157, guid: 69d41f98bb7d12c44ad5c53a231814ca,
        type: 3}
      propertyPath: m_LocalEulerAnglesHint.y
      value: -3.2240558
      objectReference: {fileID: 0}
    - target: {fileID: 7465145723338604157, guid: 69d41f98bb7d12c44ad5c53a231814ca,
        type: 3}
      propertyPath: m_LocalEulerAnglesHint.z
      value: 4.558613
      objectReference: {fileID: 0}
    - target: {fileID: 7540521818041699058, guid: 69d41f98bb7d12c44ad5c53a231814ca,
        type: 3}
      propertyPath: m_LocalEulerAnglesHint.x
      value: -3.663737
      objectReference: {fileID: 0}
    - target: {fileID: 7540521818041699058, guid: 69d41f98bb7d12c44ad5c53a231814ca,
        type: 3}
      propertyPath: m_LocalEulerAnglesHint.y
      value: 7.6392927
      objectReference: {fileID: 0}
    - target: {fileID: 7540521818041699058, guid: 69d41f98bb7d12c44ad5c53a231814ca,
        type: 3}
      propertyPath: m_LocalEulerAnglesHint.z
      value: 63.57793
      objectReference: {fileID: 0}
    - target: {fileID: 7928833819938543143, guid: 69d41f98bb7d12c44ad5c53a231814ca,
        type: 3}
      propertyPath: m_LocalEulerAnglesHint.x
      value: -0.00006928849
      objectReference: {fileID: 0}
    - target: {fileID: 7928833819938543143, guid: 69d41f98bb7d12c44ad5c53a231814ca,
        type: 3}
      propertyPath: m_LocalEulerAnglesHint.y
      value: -0.00040318654
      objectReference: {fileID: 0}
    - target: {fileID: 7928833819938543143, guid: 69d41f98bb7d12c44ad5c53a231814ca,
        type: 3}
      propertyPath: m_LocalEulerAnglesHint.z
      value: -0.0090818135
      objectReference: {fileID: 0}
    - target: {fileID: 8008707282107913272, guid: 69d41f98bb7d12c44ad5c53a231814ca,
        type: 3}
      propertyPath: m_LocalEulerAnglesHint.x
      value: -8.507731
      objectReference: {fileID: 0}
    - target: {fileID: 8008707282107913272, guid: 69d41f98bb7d12c44ad5c53a231814ca,
        type: 3}
      propertyPath: m_LocalEulerAnglesHint.y
      value: 0.053254105
      objectReference: {fileID: 0}
    - target: {fileID: 8008707282107913272, guid: 69d41f98bb7d12c44ad5c53a231814ca,
        type: 3}
      propertyPath: m_LocalEulerAnglesHint.z
      value: -0.75383794
      objectReference: {fileID: 0}
    - target: {fileID: 8102725034916082375, guid: 69d41f98bb7d12c44ad5c53a231814ca,
        type: 3}
      propertyPath: m_LocalEulerAnglesHint.x
      value: 11.332485
      objectReference: {fileID: 0}
    - target: {fileID: 8102725034916082375, guid: 69d41f98bb7d12c44ad5c53a231814ca,
        type: 3}
      propertyPath: m_LocalEulerAnglesHint.y
      value: 0.12664604
      objectReference: {fileID: 0}
    - target: {fileID: 8102725034916082375, guid: 69d41f98bb7d12c44ad5c53a231814ca,
        type: 3}
      propertyPath: m_LocalEulerAnglesHint.z
      value: 1.3238957
      objectReference: {fileID: 0}
    - target: {fileID: 8481223332446909104, guid: 69d41f98bb7d12c44ad5c53a231814ca,
        type: 3}
      propertyPath: m_LocalEulerAnglesHint.x
      value: 11.039671
      objectReference: {fileID: 0}
    - target: {fileID: 8481223332446909104, guid: 69d41f98bb7d12c44ad5c53a231814ca,
        type: 3}
      propertyPath: m_LocalEulerAnglesHint.y
      value: 0.10228375
      objectReference: {fileID: 0}
    - target: {fileID: 8481223332446909104, guid: 69d41f98bb7d12c44ad5c53a231814ca,
        type: 3}
      propertyPath: m_LocalEulerAnglesHint.z
      value: 1.1158512
      objectReference: {fileID: 0}
    - target: {fileID: 8527149668396152107, guid: 69d41f98bb7d12c44ad5c53a231814ca,
        type: 3}
      propertyPath: m_LocalEulerAnglesHint.x
      value: 72.068016
      objectReference: {fileID: 0}
    - target: {fileID: 8527149668396152107, guid: 69d41f98bb7d12c44ad5c53a231814ca,
        type: 3}
      propertyPath: m_LocalEulerAnglesHint.y
      value: 87.48059
      objectReference: {fileID: 0}
    - target: {fileID: 8527149668396152107, guid: 69d41f98bb7d12c44ad5c53a231814ca,
        type: 3}
      propertyPath: m_LocalEulerAnglesHint.z
      value: 178.51949
      objectReference: {fileID: 0}
    - target: {fileID: 8905862707903272432, guid: 69d41f98bb7d12c44ad5c53a231814ca,
        type: 3}
      propertyPath: m_LocalEulerAnglesHint.x
      value: 0.6579492
      objectReference: {fileID: 0}
    - target: {fileID: 8905862707903272432, guid: 69d41f98bb7d12c44ad5c53a231814ca,
        type: 3}
      propertyPath: m_LocalEulerAnglesHint.y
      value: -1.5611379
      objectReference: {fileID: 0}
    - target: {fileID: 8905862707903272432, guid: 69d41f98bb7d12c44ad5c53a231814ca,
        type: 3}
      propertyPath: m_LocalEulerAnglesHint.z
      value: 0.3699488
      objectReference: {fileID: 0}
    - target: {fileID: 8921744125258845059, guid: 69d41f98bb7d12c44ad5c53a231814ca,
        type: 3}
      propertyPath: m_LocalEulerAnglesHint.x
      value: 83.57994
      objectReference: {fileID: 0}
    - target: {fileID: 8921744125258845059, guid: 69d41f98bb7d12c44ad5c53a231814ca,
        type: 3}
      propertyPath: m_LocalEulerAnglesHint.y
      value: 76.92033
      objectReference: {fileID: 0}
    - target: {fileID: 8921744125258845059, guid: 69d41f98bb7d12c44ad5c53a231814ca,
        type: 3}
      propertyPath: m_LocalEulerAnglesHint.z
      value: 79.016
      objectReference: {fileID: 0}
    - target: {fileID: 8924800298463206864, guid: 69d41f98bb7d12c44ad5c53a231814ca,
        type: 3}
      propertyPath: m_LocalEulerAnglesHint.x
      value: 9.422523
      objectReference: {fileID: 0}
    - target: {fileID: 8924800298463206864, guid: 69d41f98bb7d12c44ad5c53a231814ca,
        type: 3}
      propertyPath: m_LocalEulerAnglesHint.y
      value: -5.2819242
      objectReference: {fileID: 0}
    - target: {fileID: 8924800298463206864, guid: 69d41f98bb7d12c44ad5c53a231814ca,
        type: 3}
      propertyPath: m_LocalEulerAnglesHint.z
      value: -58.906067
      objectReference: {fileID: 0}
    - target: {fileID: 9128213748494614846, guid: 69d41f98bb7d12c44ad5c53a231814ca,
        type: 3}
      propertyPath: m_LocalEulerAnglesHint.x
      value: 43.004833
      objectReference: {fileID: 0}
    - target: {fileID: 9128213748494614846, guid: 69d41f98bb7d12c44ad5c53a231814ca,
        type: 3}
      propertyPath: m_LocalEulerAnglesHint.y
      value: 0.48082763
      objectReference: {fileID: 0}
    - target: {fileID: 9128213748494614846, guid: 69d41f98bb7d12c44ad5c53a231814ca,
        type: 3}
      propertyPath: m_LocalEulerAnglesHint.z
      value: 0.07693958
      objectReference: {fileID: 0}
    - target: {fileID: 9133732006867864033, guid: 69d41f98bb7d12c44ad5c53a231814ca,
        type: 3}
      propertyPath: m_LocalEulerAnglesHint.x
      value: -2.9958944
      objectReference: {fileID: 0}
    - target: {fileID: 9133732006867864033, guid: 69d41f98bb7d12c44ad5c53a231814ca,
        type: 3}
      propertyPath: m_LocalEulerAnglesHint.y
      value: 0.004126467
      objectReference: {fileID: 0}
    - target: {fileID: 9133732006867864033, guid: 69d41f98bb7d12c44ad5c53a231814ca,
        type: 3}
      propertyPath: m_LocalEulerAnglesHint.z
      value: -0.23215598
      objectReference: {fileID: 0}
    m_RemovedComponents: []
  m_SourcePrefab: {fileID: 100100000, guid: 69d41f98bb7d12c44ad5c53a231814ca, type: 3}
--- !u!1 &7439401641395053053 stripped
GameObject:
  m_CorrespondingSourceObject: {fileID: 6289619042830723480, guid: 69d41f98bb7d12c44ad5c53a231814ca,
    type: 3}
  m_PrefabInstance: {fileID: 3492303271416711269}
  m_PrefabAsset: {fileID: 0}
