%YAML 1.1
%TAG !u! tag:unity3d.com,2011:
--- !u!74 &7400000
AnimationClip:
  m_ObjectHideFlags: 0
  m_CorrespondingSourceObject: {fileID: 0}
  m_PrefabInstance: {fileID: 0}
  m_PrefabAsset: {fileID: 0}
  m_Name: plane_fly_1
  serializedVersion: 6
  m_Legacy: 0
  m_Compressed: 0
  m_UseHighQualityCurve: 1
  m_RotationCurves: []
  m_CompressedRotationCurves: []
  m_EulerCurves:
  - curve:
      serializedVersion: 2
      m_Curve:
      - serializedVersion: 3
        time: 0
        value: {x: 0.21653748, y: 0, z: -0.16998291}
        inSlope: {x: -12.486072, y: 0, z: 123.90432}
        outSlope: {x: -12.486072, y: 0, z: 123.90432}
        tangentMode: 0
        weightedMode: 0
        inWeight: {x: 0.33333334, y: 0.33333334, z: 0.33333334}
        outWeight: {x: 0.5341179, y: 0.33333334, z: 0.05185191}
      - serializedVersion: 3
        time: 1.0833334
        value: {x: -21.793312, y: -5.477316, z: 9.234537}
        inSlope: {x: 48.07747, y: -67.00724, z: -67.03398}
        outSlope: {x: 48.07747, y: -67.00724, z: -67.03398}
        tangentMode: 0
        weightedMode: 0
        inWeight: {x: 0.33333334, y: 0.33333334, z: 0.027776659}
        outWeight: {x: 0.33333334, y: 0.33333334, z: 0.16003847}
      - serializedVersion: 3
        time: 1.1166667
        value: {x: -20.04, y: -7.8345785, z: 6.7945743}
        inSlope: {x: 57.193607, y: -74.48247, z: -78.98774}
        outSlope: {x: 57.193607, y: -74.48247, z: -78.98774}
        tangentMode: 0
        weightedMode: 0
        inWeight: {x: 0.14728037, y: 0.33333334, z: 0.33333334}
        outWeight: {x: 0.079722166, y: 0.33333334, z: 0.33333334}
      - serializedVersion: 3
        time: 1.1333333
        value: {x: -19.136255, y: -9.108, z: 5.434576}
        inSlope: {x: 51.29098, y: -78.341286, z: -84.11815}
        outSlope: {x: 51.29098, y: -78.341286, z: -84.11815}
        tangentMode: 0
        weightedMode: 0
        inWeight: {x: 0.33333334, y: 0.098327994, z: 0.33333334}
        outWeight: {x: 0.33333334, y: 0.33333334, z: 0.33333334}
      - serializedVersion: 3
        time: 1.6
        value: {x: -20.30532, y: -9.6872425, z: -31.085129}
        inSlope: {x: -28.927078, y: 61.56261, z: 1.3423307}
        outSlope: {x: -28.927078, y: 61.56261, z: 1.3423307}
        tangentMode: 0
        weightedMode: 0
        inWeight: {x: 0.33333334, y: 0.33333334, z: 0.11278481}
        outWeight: {x: 0.33333334, y: 0.33333334, z: 0.3931419}
      - serializedVersion: 3
        time: 1.8833333
        value: {x: -25.47847, y: 14.606823, z: -11.330406}
        inSlope: {x: 2.5014737, y: 104.65503, z: 123.73227}
        outSlope: {x: 2.5014737, y: 104.65503, z: 123.73227}
        tangentMode: 0
        weightedMode: 0
        inWeight: {x: 0.33333334, y: 0.02920278, z: 0.33333334}
        outWeight: {x: 0.33333334, y: 0.3717916, z: 0.33333334}
      - serializedVersion: 3
        time: 2
        value: {x: -23.505, y: 23.081345, z: 4.725}
        inSlope: {x: 33.040344, y: 47.75318, z: 149.06671}
        outSlope: {x: 33.040344, y: 47.75318, z: 149.06671}
        tangentMode: 0
        weightedMode: 0
        inWeight: {x: 0.18514788, y: 0.33333334, z: 0.15999089}
        outWeight: {x: 0.33333334, y: 0.33333334, z: 0.18577576}
      - serializedVersion: 3
        time: 2.2666667
        value: {x: -20.077642, y: 34.928013, z: 31.908516}
        inSlope: {x: -1.7406927, y: 78.35116, z: 57.674904}
        outSlope: {x: -1.7406927, y: 78.35116, z: 57.674904}
        tangentMode: 0
        weightedMode: 0
        inWeight: {x: 0.33333334, y: 0.33333334, z: 0.33333334}
        outWeight: {x: 0.33333334, y: 0.12472939, z: 0.33333334}
      - serializedVersion: 3
        time: 2.4
        value: {x: -20.723173, y: 46.69699, z: 36.934143}
        inSlope: {x: -6.543636, y: 93.277336, z: 18.425713}
        outSlope: {x: -6.543636, y: 93.277336, z: 18.425713}
        tangentMode: 0
        weightedMode: 0
        inWeight: {x: 0.33333334, y: 0.33333334, z: 0.6748915}
        outWeight: {x: 0.33333334, y: 0.33333334, z: 1}
      - serializedVersion: 3
        time: 2.7833333
        value: {x: -19.13458, y: 67.02316, z: -16.714478}
        inSlope: {x: 26.392405, y: -27.77926, z: -190.89021}
        outSlope: {x: 26.392405, y: -27.77926, z: -190.89021}
        tangentMode: 0
        weightedMode: 0
        inWeight: {x: 0.455116, y: 0.52787507, z: 0.030005807}
        outWeight: {x: 0.33333334, y: 0.33333334, z: 0.25949776}
      - serializedVersion: 3
        time: 3.2166667
        value: {x: -16.589, y: 26.41, z: -20.787}
        inSlope: {x: 0, y: -104.78623, z: 42.591896}
        outSlope: {x: 0, y: -104.78623, z: 42.591896}
        tangentMode: 0
        weightedMode: 0
        inWeight: {x: 0.33333334, y: 0.07440376, z: 0.32816303}
        outWeight: {x: 0.33333334, y: 0.33333334, z: 0.33333334}
      m_PreInfinity: 2
      m_PostInfinity: 2
      m_RotationOrder: 4
    path: plane
  m_PositionCurves:
  - curve:
      serializedVersion: 2
      m_Curve:
      - serializedVersion: 3
        time: 0
        value: {x: -0.09399998, y: 0.631, z: -0.06000042}
        inSlope: {x: 0, y: 0, z: 0}
        outSlope: {x: 0, y: 0, z: 0}
        tangentMode: 0
        weightedMode: 0
        inWeight: {x: 0.33333334, y: 0.33333334, z: 0.33333334}
        outWeight: {x: 0.33333334, y: 0.33333334, z: 0.33333334}
      - serializedVersion: 3
        time: 1.1333333
        value: {x: 1.232, y: 1.468, z: -0.65}
        inSlope: {x: 0.43719706, y: 0, z: 0.6263616}
        outSlope: {x: 0.43719706, y: 0, z: 0.6263616}
        tangentMode: 0
        weightedMode: 0
        inWeight: {x: 0.33333334, y: 0.33333334, z: 0.33333334}
        outWeight: {x: 0.25979674, y: 0.33333334, z: 0.19704187}
      - serializedVersion: 3
        time: 2
        value: {x: 2.6336508, y: 0.868, z: 0.297}
        inSlope: {x: 0.3479844, y: 0, z: 0}
        outSlope: {x: 0.3479844, y: 0, z: 0}
        tangentMode: 0
        weightedMode: 0
        inWeight: {x: 0.26269972, y: 0.33333334, z: 0.33333334}
        outWeight: {x: 0.33333334, y: 0.33333334, z: 0.33333334}
      - serializedVersion: 3
        time: 2.7833333
        value: {x: 3.2069745, y: 1.311, z: -0.33411872}
        inSlope: {x: 0.47679615, y: 0, z: -1.3049135}
        outSlope: {x: 0.47679615, y: 0, z: -1.3049135}
        tangentMode: 0
        weightedMode: 0
        inWeight: {x: 0.33333334, y: 0.33333334, z: 0.26282328}
        outWeight: {x: 0.33333334, y: 0.33333334, z: 0.33333334}
      - serializedVersion: 3
        time: 3.2166667
        value: {x: 3.352, y: 1.028, z: -0.728}
        inSlope: {x: 0, y: 0, z: 0}
        outSlope: {x: 0, y: 0, z: 0}
        tangentMode: 0
        weightedMode: 0
        inWeight: {x: 0.33333334, y: 0.33333334, z: 0.33333334}
        outWeight: {x: 0.33333334, y: 0.33333334, z: 0.33333334}
      m_PreInfinity: 2
      m_PostInfinity: 2
      m_RotationOrder: 4
    path: plane
  m_ScaleCurves: []
  m_FloatCurves: []
  m_PPtrCurves: []
  m_SampleRate: 60
  m_WrapMode: 0
  m_Bounds:
    m_Center: {x: 0, y: 0, z: 0}
    m_Extent: {x: 0, y: 0, z: 0}
  m_ClipBindingConstant:
    genericBindings:
    - serializedVersion: 2
      path: 3249745280
      attribute: 1
      script: {fileID: 0}
      typeID: 4
      customType: 0
      isPPtrCurve: 0
    - serializedVersion: 2
      path: 3249745280
      attribute: 4
      script: {fileID: 0}
      typeID: 4
      customType: 4
      isPPtrCurve: 0
    pptrCurveMapping: []
  m_AnimationClipSettings:
    serializedVersion: 2
    m_AdditiveReferencePoseClip: {fileID: 0}
    m_AdditiveReferencePoseTime: 0
    m_StartTime: 0
    m_StopTime: 3.2166667
    m_OrientationOffsetY: 0
    m_Level: 0
    m_CycleOffset: 0
    m_HasAdditiveReferencePose: 0
    m_LoopTime: 0
    m_LoopBlend: 0
    m_LoopBlendOrientation: 0
    m_LoopBlendPositionY: 0
    m_LoopBlendPositionXZ: 0
    m_KeepOriginalOrientation: 0
    m_KeepOriginalPositionY: 1
    m_KeepOriginalPositionXZ: 0
    m_HeightFromFeet: 0
    m_Mirror: 0
  m_EditorCurves:
  - curve:
      serializedVersion: 2
      m_Curve:
      - serializedVersion: 3
        time: 0
        value: -0.09399998
        inSlope: 0
        outSlope: 0
        tangentMode: 136
        weightedMode: 0
        inWeight: 0.33333334
        outWeight: 0.33333334
      - serializedVersion: 3
        time: 1.1333333
        value: 1.232
        inSlope: 0.43719706
        outSlope: 0.43719706
        tangentMode: 0
        weightedMode: 0
        inWeight: 0.33333334
        outWeight: 0.25979674
      - serializedVersion: 3
        time: 2
        value: 2.6336508
        inSlope: 0.3479844
        outSlope: 0.3479844
        tangentMode: 0
        weightedMode: 0
        inWeight: 0.26269972
        outWeight: 0.33333334
      - serializedVersion: 3
        time: 2.7833333
        value: 3.2069745
        inSlope: 0.47679615
        outSlope: 0.47679615
        tangentMode: 136
        weightedMode: 0
        inWeight: 0.33333334
        outWeight: 0.33333334
      - serializedVersion: 3
        time: 3.2166667
        value: 3.352
        inSlope: 0
        outSlope: 0
        tangentMode: 136
        weightedMode: 0
        inWeight: 0.33333334
        outWeight: 0.33333334
      m_PreInfinity: 2
      m_PostInfinity: 2
      m_RotationOrder: 4
    attribute: m_LocalPosition.x
    path: plane
    classID: 4
    script: {fileID: 0}
  - curve:
      serializedVersion: 2
      m_Curve:
      - serializedVersion: 3
        time: 0
        value: 0.631
        inSlope: 0
        outSlope: 0
        tangentMode: 136
        weightedMode: 0
        inWeight: 0.33333334
        outWeight: 0.33333334
      - serializedVersion: 3
        time: 1.1333333
        value: 1.468
        inSlope: 0
        outSlope: 0
        tangentMode: 136
        weightedMode: 0
        inWeight: 0.33333334
        outWeight: 0.33333334
      - serializedVersion: 3
        time: 2
        value: 0.868
        inSlope: 0
        outSlope: 0
        tangentMode: 136
        weightedMode: 0
        inWeight: 0.33333334
        outWeight: 0.33333334
      - serializedVersion: 3
        time: 2.7833333
        value: 1.311
        inSlope: 0
        outSlope: 0
        tangentMode: 136
        weightedMode: 0
        inWeight: 0.33333334
        outWeight: 0.33333334
      - serializedVersion: 3
        time: 3.2166667
        value: 1.028
        inSlope: 0
        outSlope: 0
        tangentMode: 136
        weightedMode: 0
        inWeight: 0.33333334
        outWeight: 0.33333334
      m_PreInfinity: 2
      m_PostInfinity: 2
      m_RotationOrder: 4
    attribute: m_LocalPosition.y
    path: plane
    classID: 4
    script: {fileID: 0}
  - curve:
      serializedVersion: 2
      m_Curve:
      - serializedVersion: 3
        time: 0
        value: -0.06000042
        inSlope: 0
        outSlope: 0
        tangentMode: 136
        weightedMode: 0
        inWeight: 0.33333334
        outWeight: 0.33333334
      - serializedVersion: 3
        time: 1.1333333
        value: -0.65
        inSlope: 0.6263616
        outSlope: 0.6263616
        tangentMode: 0
        weightedMode: 0
        inWeight: 0.33333334
        outWeight: 0.19704187
      - serializedVersion: 3
        time: 2
        value: 0.297
        inSlope: 0
        outSlope: 0
        tangentMode: 136
        weightedMode: 0
        inWeight: 0.33333334
        outWeight: 0.33333334
      - serializedVersion: 3
        time: 2.7833333
        value: -0.33411872
        inSlope: -1.3049135
        outSlope: -1.3049135
        tangentMode: 0
        weightedMode: 0
        inWeight: 0.26282328
        outWeight: 0.33333334
      - serializedVersion: 3
        time: 3.2166667
        value: -0.728
        inSlope: 0
        outSlope: 0
        tangentMode: 136
        weightedMode: 0
        inWeight: 0.33333334
        outWeight: 0.33333334
      m_PreInfinity: 2
      m_PostInfinity: 2
      m_RotationOrder: 4
    attribute: m_LocalPosition.z
    path: plane
    classID: 4
    script: {fileID: 0}
  - curve:
      serializedVersion: 2
      m_Curve:
      - serializedVersion: 3
        time: 0
        value: 0.21653748
        inSlope: -12.486072
        outSlope: -12.486072
        tangentMode: 0
        weightedMode: 0
        inWeight: 0.33333334
        outWeight: 0.5341179
      - serializedVersion: 3
        time: 1.1166667
        value: -20.04
        inSlope: 57.193607
        outSlope: 57.193607
        tangentMode: 0
        weightedMode: 0
        inWeight: 0.14728037
        outWeight: 0.079722166
      - serializedVersion: 3
        time: 2
        value: -23.505
        inSlope: 33.040344
        outSlope: 33.040344
        tangentMode: 0
        weightedMode: 0
        inWeight: 0.18514788
        outWeight: 0.33333334
      - serializedVersion: 3
        time: 2.7833333
        value: -19.13458
        inSlope: 26.392405
        outSlope: 26.392405
        tangentMode: 0
        weightedMode: 0
        inWeight: 0.455116
        outWeight: 0.33333334
      - serializedVersion: 3
        time: 3.2166667
        value: -16.589
        inSlope: 0
        outSlope: 0
        tangentMode: 136
        weightedMode: 0
        inWeight: 0.33333334
        outWeight: 0.33333334
      m_PreInfinity: 2
      m_PostInfinity: 2
      m_RotationOrder: 4
    attribute: localEulerAnglesRaw.x
    path: plane
    classID: 4
    script: {fileID: 0}
  - curve:
      serializedVersion: 2
      m_Curve:
      - serializedVersion: 3
        time: 0
        value: 0
        inSlope: 0
        outSlope: 0
        tangentMode: 136
        weightedMode: 0
        inWeight: 0.33333334
        outWeight: 0.33333334
      - serializedVersion: 3
        time: 1.1333333
        value: -9.108
        inSlope: -78.341286
        outSlope: -78.341286
        tangentMode: 0
        weightedMode: 0
        inWeight: 0.098327994
        outWeight: 0.33333334
      - serializedVersion: 3
        time: 1.8833333
        value: 14.606823
        inSlope: 104.65503
        outSlope: 104.65503
        tangentMode: 0
        weightedMode: 0
        inWeight: 0.02920278
        outWeight: 0.3717916
      - serializedVersion: 3
        time: 2.2666667
        value: 34.928013
        inSlope: 78.35116
        outSlope: 78.35116
        tangentMode: 0
        weightedMode: 0
        inWeight: 0.33333334
        outWeight: 0.12472939
      - serializedVersion: 3
        time: 2.7833333
        value: 67.02316
        inSlope: -27.77926
        outSlope: -27.77926
        tangentMode: 0
        weightedMode: 0
        inWeight: 0.52787507
        outWeight: 0.33333334
      - serializedVersion: 3
        time: 3.2166667
        value: 26.41
        inSlope: -104.78623
        outSlope: -104.78623
        tangentMode: 0
        weightedMode: 0
        inWeight: 0.07440376
        outWeight: 0.33333334
      m_PreInfinity: 2
      m_PostInfinity: 2
      m_RotationOrder: 4
    attribute: localEulerAnglesRaw.y
    path: plane
    classID: 4
    script: {fileID: 0}
  - curve:
      serializedVersion: 2
      m_Curve:
      - serializedVersion: 3
        time: 0
        value: -0.16998291
        inSlope: 123.90432
        outSlope: 123.90432
        tangentMode: 0
        weightedMode: 0
        inWeight: 0.33333334
        outWeight: 0.05185191
      - serializedVersion: 3
        time: 1.0833334
        value: 9.234537
        inSlope: -67.03398
        outSlope: -67.03398
        tangentMode: 0
        weightedMode: 0
        inWeight: 0.027776659
        outWeight: 0.16003847
      - serializedVersion: 3
        time: 1.6
        value: -31.085129
        inSlope: 1.3423307
        outSlope: 1.3423307
        tangentMode: 0
        weightedMode: 0
        inWeight: 0.11278481
        outWeight: 0.3931419
      - serializedVersion: 3
        time: 2
        value: 4.725
        inSlope: 149.06671
        outSlope: 149.06671
        tangentMode: 0
        weightedMode: 0
        inWeight: 0.15999089
        outWeight: 0.18577576
      - serializedVersion: 3
        time: 2.4
        value: 36.934143
        inSlope: 18.425713
        outSlope: 18.425713
        tangentMode: 0
        weightedMode: 0
        inWeight: 0.6748915
        outWeight: 1
      - serializedVersion: 3
        time: 2.7833333
        value: -16.714478
        inSlope: -190.89021
        outSlope: -190.89021
        tangentMode: 0
        weightedMode: 0
        inWeight: 0.030005807
        outWeight: 0.25949776
      - serializedVersion: 3
        time: 3.2166667
        value: -20.787
        inSlope: 42.591896
        outSlope: 42.591896
        tangentMode: 0
        weightedMode: 0
        inWeight: 0.32816303
        outWeight: 0.33333334
      m_PreInfinity: 2
      m_PostInfinity: 2
      m_RotationOrder: 4
    attribute: localEulerAnglesRaw.z
    path: plane
    classID: 4
    script: {fileID: 0}
  m_EulerEditorCurves:
  - curve:
      serializedVersion: 2
      m_Curve: []
      m_PreInfinity: 2
      m_PostInfinity: 2
      m_RotationOrder: 4
    attribute: m_LocalEulerAngles.x
    path: plane
    classID: 4
    script: {fileID: 0}
  - curve:
      serializedVersion: 2
      m_Curve: []
      m_PreInfinity: 2
      m_PostInfinity: 2
      m_RotationOrder: 4
    attribute: m_LocalEulerAngles.y
    path: plane
    classID: 4
    script: {fileID: 0}
  - curve:
      serializedVersion: 2
      m_Curve: []
      m_PreInfinity: 2
      m_PostInfinity: 2
      m_RotationOrder: 4
    attribute: m_LocalEulerAngles.z
    path: plane
    classID: 4
    script: {fileID: 0}
  m_HasGenericRootTransform: 0
  m_HasMotionFloatCurves: 0
  m_Events:
  - time: 3.2166667
    functionName: EndFlight
    data: 
    objectReferenceParameter: {fileID: 0}
    floatParameter: 0
    intParameter: 0
    messageOptions: 0
