%YAML 1.1
%TAG !u! tag:unity3d.com,2011:
--- !u!74 &7400000
AnimationClip:
  m_ObjectHideFlags: 0
  m_CorrespondingSourceObject: {fileID: 0}
  m_PrefabInstance: {fileID: 0}
  m_PrefabAsset: {fileID: 0}
  m_Name: Fly
  serializedVersion: 6
  m_Legacy: 0
  m_Compressed: 0
  m_UseHighQualityCurve: 1
  m_RotationCurves: []
  m_CompressedRotationCurves: []
  m_EulerCurves:
  - curve:
      serializedVersion: 2
      m_Curve:
      - serializedVersion: 3
        time: 0
        value: {x: 0, y: 0, z: 0}
        inSlope: {x: -211.56862, y: -0.30093554, z: -42.51893}
        outSlope: {x: -211.56862, y: -0.30093554, z: -42.51893}
        tangentMode: 0
        weightedMode: 0
        inWeight: {x: 0.33333334, y: 0.33333334, z: 0.33333334}
        outWeight: {x: 0.4211358, y: 1, z: 0.56496716}
      - serializedVersion: 3
        time: 0.3
        value: {x: -39.817856, y: -6.0434456, z: -11.342833}
        inSlope: {x: -60.754036, y: -36.54082, z: -30.472548}
        outSlope: {x: -60.754036, y: -36.54082, z: -30.472548}
        tangentMode: 0
        weightedMode: 0
        inWeight: {x: 0.33333334, y: 0.33333334, z: 0.33333334}
        outWeight: {x: 0.33333334, y: 0.6093003, z: 0.33333334}
      - serializedVersion: 3
        time: 0.41666666
        value: {x: -44.07335, y: -10.596363, z: -14.399521}
        inSlope: {x: -13.236338, y: -38.152935, z: -21.530472}
        outSlope: {x: -13.236338, y: -38.152935, z: -21.530472}
        tangentMode: 0
        weightedMode: 0
        inWeight: {x: 0.33333334, y: 0.33333334, z: 0.33333334}
        outWeight: {x: 0.33333334, y: 0.33333334, z: 0.33333334}
      - serializedVersion: 3
        time: 0.6
        value: {x: -40.574593, y: -14.853445, z: -18.434822}
        inSlope: {x: 48.838852, y: 0, z: -20.930372}
        outSlope: {x: 48.838852, y: 0, z: -20.930372}
        tangentMode: 0
        weightedMode: 0
        inWeight: {x: 0.33333334, y: 0.33333334, z: 0.33333334}
        outWeight: {x: 0.33333334, y: 0.33333334, z: 0.33333334}
      - serializedVersion: 3
        time: 1
        value: {x: -2.1960635, y: 16.188457, z: -21.530472}
        inSlope: {x: 130.83998, y: 142.65756, z: 12.881226}
        outSlope: {x: 130.83998, y: 142.65756, z: 12.881226}
        tangentMode: 0
        weightedMode: 0
        inWeight: {x: 0.33333334, y: 0.33333334, z: 0.33333334}
        outWeight: {x: 0.33333334, y: 0.33333334, z: 0.48585558}
      - serializedVersion: 3
        time: 1.0166667
        value: {x: 0, y: 18.60218, z: -21.254845}
        inSlope: {x: 132.66635, y: 146.96725, z: 20.106058}
        outSlope: {x: 132.66635, y: 146.96725, z: 20.106058}
        tangentMode: 0
        weightedMode: 0
        inWeight: {x: 0.4384856, y: 0.33333334, z: 0.33333334}
        outWeight: {x: 0.3539762, y: 0.33333334, z: 0.33333334}
      - serializedVersion: 3
        time: 1.5
        value: {x: 36.260063, y: 110.52398, z: 1.4852142}
        inSlope: {x: 10.064047, y: 215.07202, z: 0}
        outSlope: {x: 10.064047, y: 215.07202, z: 0}
        tangentMode: 0
        weightedMode: 0
        inWeight: {x: 0.33333334, y: 0.33333334, z: 0.33333334}
        outWeight: {x: 0.33333334, y: 0.33333334, z: 0.33333334}
      - serializedVersion: 3
        time: 2
        value: {x: 0, y: 211.64798, z: -10.819894}
        inSlope: {x: -162.92847, y: 169.81152, z: -28.34162}
        outSlope: {x: -162.92847, y: 169.81152, z: -28.34162}
        tangentMode: 0
        weightedMode: 0
        inWeight: {x: 0.4101759, y: 0.33333334, z: 0.33333334}
        outWeight: {x: 0.33333334, y: 0.33333334, z: 0.33333334}
      - serializedVersion: 3
        time: 2.1833334
        value: {x: -25.230553, y: 238.79785, z: -18.570402}
        inSlope: {x: -107.939995, y: 123.731895, z: -32.94118}
        outSlope: {x: -107.939995, y: 123.731895, z: -32.94118}
        tangentMode: 0
        weightedMode: 0
        inWeight: {x: 0.33333334, y: 0.33333334, z: 0.33333334}
        outWeight: {x: 0.33333334, y: 0.33333334, z: 0.33333334}
      - serializedVersion: 3
        time: 2.25
        value: {x: -31.562416, y: 247.17972, z: -19.771}
        inSlope: {x: -81.437706, y: 127.303154, z: 0}
        outSlope: {x: -81.437706, y: 127.303154, z: 0}
        tangentMode: 0
        weightedMode: 0
        inWeight: {x: 0.33333334, y: 0.33333334, z: 0.33333334}
        outWeight: {x: 0.33333334, y: 0.33333334, z: 0.33333334}
      - serializedVersion: 3
        time: 2.4166667
        value: {x: -38.650124, y: 268.4398, z: -14.252344}
        inSlope: {x: 0, y: 125.18857, z: 42.572453}
        outSlope: {x: 0, y: 125.18857, z: 42.572453}
        tangentMode: 0
        weightedMode: 0
        inWeight: {x: 0.33333334, y: 0.33333334, z: 0.33333334}
        outWeight: {x: 0.33333334, y: 0.33333334, z: 0.33333334}
      - serializedVersion: 3
        time: 2.5166667
        value: {x: -32.48793, y: 280.5639, z: -11.698}
        inSlope: {x: 115.29278, y: 116.34773, z: 0}
        outSlope: {x: 115.29278, y: 116.34773, z: 0}
        tangentMode: 0
        weightedMode: 0
        inWeight: {x: 0.33333334, y: 0.33333334, z: 0.33333334}
        outWeight: {x: 0.33333334, y: 0.33333334, z: 0.33333334}
      - serializedVersion: 3
        time: 2.75
        value: {x: 9.204492, y: 303.32965, z: -56.145}
        inSlope: {x: 198.78078, y: 73.6337, z: 0}
        outSlope: {x: 198.78078, y: 73.6337, z: 0}
        tangentMode: 0
        weightedMode: 0
        inWeight: {x: 0.33333334, y: 0.33333334, z: 0.33333334}
        outWeight: {x: 0.33333334, y: 0.33333334, z: 0.33333334}
      - serializedVersion: 3
        time: 2.9833333
        value: {x: 40.074413, y: 312.52145, z: -43.635723}
        inSlope: {x: 22.528488, y: 0, z: 80.08862}
        outSlope: {x: 22.528488, y: 0, z: 80.08862}
        tangentMode: 0
        weightedMode: 0
        inWeight: {x: 0.33333334, y: 0.33333334, z: 0.33333334}
        outWeight: {x: 0.33333334, y: 0.4781046, z: 0.33333334}
      - serializedVersion: 3
        time: 3
        value: {x: 40.264, y: 312.52145, z: -42.304}
        inSlope: {x: 0, y: 0, z: 79.57956}
        outSlope: {x: 0, y: 0, z: 79.57956}
        tangentMode: 0
        weightedMode: 0
        inWeight: {x: 0.33333334, y: 0.33333334, z: 0.5497551}
        outWeight: {x: 0.33333334, y: 0.33333334, z: 0.33333334}
      m_PreInfinity: 2
      m_PostInfinity: 2
      m_RotationOrder: 4
    path: 
  m_PositionCurves:
  - curve:
      serializedVersion: 2
      m_Curve:
      - serializedVersion: 3
        time: 0
        value: {x: 0, y: 0, z: 0}
        inSlope: {x: -4.9629602, y: 0, z: 0.5988516}
        outSlope: {x: -4.9629602, y: 0, z: 0.5988516}
        tangentMode: 0
        weightedMode: 0
        inWeight: {x: 0.33333334, y: 0.33333334, z: 0.33333334}
        outWeight: {x: 0.07468595, y: 0.33333334, z: 0.078020014}
      - serializedVersion: 3
        time: 2
        value: {x: -0.09199577, y: 3.7607028, z: -2.2355604}
        inSlope: {x: -5.0931053, y: 2.256422, z: -12.637357}
        outSlope: {x: -5.0931053, y: 2.256422, z: -12.637357}
        tangentMode: 0
        weightedMode: 0
        inWeight: {x: 0.33333334, y: 0.33333334, z: 0.6211195}
        outWeight: {x: 0.33333334, y: 0.33333334, z: 0.33333334}
      - serializedVersion: 3
        time: 2.0166667
        value: {x: -0.17897797, y: 3.7981515, z: -2.4326558}
        inSlope: {x: -5.345368, y: 2.2373052, z: -11.032281}
        outSlope: {x: -5.345368, y: 2.2373052, z: -11.032281}
        tangentMode: 0
        weightedMode: 0
        inWeight: {x: 0.18348587, y: 0.33333334, z: 0.33333334}
        outWeight: {x: 0.33333334, y: 0.33333334, z: 0.33333334}
      - serializedVersion: 3
        time: 2.25
        value: {x: -1.4486821, y: 4.2836757, z: -3.3045692}
        inSlope: {x: -5.80359, y: 1.9038563, z: 0}
        outSlope: {x: -5.80359, y: 1.9038563, z: 0}
        tangentMode: 0
        weightedMode: 0
        inWeight: {x: 0.33333334, y: 0.33333334, z: 0.33333334}
        outWeight: {x: 0.33333334, y: 0.33333334, z: 0.33333334}
      - serializedVersion: 3
        time: 2.5
        value: {x: -3.144012, y: 4.7008786, z: -1.9945693}
        inSlope: {x: -8.064153, y: 1.4102637, z: 0}
        outSlope: {x: -8.064153, y: 1.4102637, z: 0}
        tangentMode: 0
        weightedMode: 0
        inWeight: {x: 0.33333334, y: 0.33333334, z: 0.33333334}
        outWeight: {x: 0.33333334, y: 0.33333334, z: 0.33333334}
      - serializedVersion: 3
        time: 2.75
        value: {x: -5.6333113, y: 4.9770555, z: -2.111415}
        inSlope: {x: -12.15535, y: 0.77564526, z: 0}
        outSlope: {x: -12.15535, y: 0.77564526, z: 0}
        tangentMode: 0
        weightedMode: 0
        inWeight: {x: 0.33333334, y: 0.33333334, z: 0.33333334}
        outWeight: {x: 0.33333334, y: 0.33333334, z: 0.33333334}
      - serializedVersion: 3
        time: 3
        value: {x: -9.37424, y: 5.076949, z: -1.3996167}
        inSlope: {x: -18.077183, y: 0, z: 0}
        outSlope: {x: -18.077183, y: 0, z: 0}
        tangentMode: 0
        weightedMode: 0
        inWeight: {x: 0.33333334, y: 0.33333334, z: 0.33333334}
        outWeight: {x: 0.33333334, y: 0.33333334, z: 0.33333334}
      - serializedVersion: 3
        time: 3.0166667
        value: {x: -9.679347, y: 5.076949, z: -1.3996167}
        inSlope: {x: -18.53706, y: 0, z: 0}
        outSlope: {x: -18.53706, y: 0, z: 0}
        tangentMode: 0
        weightedMode: 0
        inWeight: {x: 0.3603146, y: 0.33333334, z: 0.33333334}
        outWeight: {x: 0.33333334, y: 0.33333334, z: 0.33333334}
      m_PreInfinity: 2
      m_PostInfinity: 2
      m_RotationOrder: 4
    path: 
  m_ScaleCurves: []
  m_FloatCurves: []
  m_PPtrCurves: []
  m_SampleRate: 60
  m_WrapMode: 0
  m_Bounds:
    m_Center: {x: 0, y: 0, z: 0}
    m_Extent: {x: 0, y: 0, z: 0}
  m_ClipBindingConstant:
    genericBindings:
    - serializedVersion: 2
      path: 0
      attribute: 1
      script: {fileID: 0}
      typeID: 4
      customType: 0
      isPPtrCurve: 0
    - serializedVersion: 2
      path: 0
      attribute: 4
      script: {fileID: 0}
      typeID: 4
      customType: 4
      isPPtrCurve: 0
    pptrCurveMapping: []
  m_AnimationClipSettings:
    serializedVersion: 2
    m_AdditiveReferencePoseClip: {fileID: 0}
    m_AdditiveReferencePoseTime: 0
    m_StartTime: 0
    m_StopTime: 3.0166667
    m_OrientationOffsetY: 0
    m_Level: 0
    m_CycleOffset: 0
    m_HasAdditiveReferencePose: 0
    m_LoopTime: 0
    m_LoopBlend: 0
    m_LoopBlendOrientation: 0
    m_LoopBlendPositionY: 0
    m_LoopBlendPositionXZ: 0
    m_KeepOriginalOrientation: 0
    m_KeepOriginalPositionY: 1
    m_KeepOriginalPositionXZ: 0
    m_HeightFromFeet: 0
    m_Mirror: 0
  m_EditorCurves:
  - curve:
      serializedVersion: 2
      m_Curve:
      - serializedVersion: 3
        time: 0
        value: 0
        inSlope: -4.9629602
        outSlope: -4.9629602
        tangentMode: 0
        weightedMode: 0
        inWeight: 0.33333334
        outWeight: 0.07468595
      - serializedVersion: 3
        time: 2.0166667
        value: -0.17897797
        inSlope: -5.345368
        outSlope: -5.345368
        tangentMode: 0
        weightedMode: 0
        inWeight: 0.18348587
        outWeight: 0.33333334
      - serializedVersion: 3
        time: 3.0166667
        value: -9.679347
        inSlope: -18.53706
        outSlope: -18.53706
        tangentMode: 0
        weightedMode: 0
        inWeight: 0.3603146
        outWeight: 0.33333334
      m_PreInfinity: 2
      m_PostInfinity: 2
      m_RotationOrder: 4
    attribute: m_LocalPosition.x
    path: 
    classID: 4
    script: {fileID: 0}
  - curve:
      serializedVersion: 2
      m_Curve:
      - serializedVersion: 3
        time: 0
        value: 0
        inSlope: 0
        outSlope: 0
        tangentMode: 136
        weightedMode: 0
        inWeight: 0.33333334
        outWeight: 0.33333334
      - serializedVersion: 3
        time: 3
        value: 5.076949
        inSlope: 0
        outSlope: 0
        tangentMode: 136
        weightedMode: 0
        inWeight: 0.33333334
        outWeight: 0.33333334
      m_PreInfinity: 2
      m_PostInfinity: 2
      m_RotationOrder: 4
    attribute: m_LocalPosition.y
    path: 
    classID: 4
    script: {fileID: 0}
  - curve:
      serializedVersion: 2
      m_Curve:
      - serializedVersion: 3
        time: 0
        value: 0
        inSlope: 0.5988516
        outSlope: 0.5988516
        tangentMode: 0
        weightedMode: 0
        inWeight: 0.33333334
        outWeight: 0.078020014
      - serializedVersion: 3
        time: 2
        value: -2.2355604
        inSlope: -12.637357
        outSlope: -12.637357
        tangentMode: 0
        weightedMode: 0
        inWeight: 0.6211195
        outWeight: 0.33333334
      - serializedVersion: 3
        time: 2.25
        value: -3.3045692
        inSlope: 0
        outSlope: 0
        tangentMode: 0
        weightedMode: 0
        inWeight: 0.33333334
        outWeight: 0.33333334
      - serializedVersion: 3
        time: 2.5
        value: -1.9945693
        inSlope: 0
        outSlope: 0
        tangentMode: 0
        weightedMode: 0
        inWeight: 0.33333334
        outWeight: 0.33333334
      - serializedVersion: 3
        time: 2.75
        value: -2.111415
        inSlope: 0
        outSlope: 0
        tangentMode: 0
        weightedMode: 0
        inWeight: 0.33333334
        outWeight: 0.33333334
      - serializedVersion: 3
        time: 3
        value: -1.3996167
        inSlope: 0
        outSlope: 0
        tangentMode: 0
        weightedMode: 0
        inWeight: 0.33333334
        outWeight: 0.33333334
      m_PreInfinity: 2
      m_PostInfinity: 2
      m_RotationOrder: 4
    attribute: m_LocalPosition.z
    path: 
    classID: 4
    script: {fileID: 0}
  - curve:
      serializedVersion: 2
      m_Curve:
      - serializedVersion: 3
        time: 0
        value: 0
        inSlope: -211.56862
        outSlope: -211.56862
        tangentMode: 0
        weightedMode: 0
        inWeight: 0.33333334
        outWeight: 0.4211358
      - serializedVersion: 3
        time: 1.0166667
        value: 0
        inSlope: 132.66635
        outSlope: 132.66635
        tangentMode: 0
        weightedMode: 0
        inWeight: 0.4384856
        outWeight: 0.3539762
      - serializedVersion: 3
        time: 2
        value: 0
        inSlope: -162.92847
        outSlope: -162.92847
        tangentMode: 0
        weightedMode: 0
        inWeight: 0.4101759
        outWeight: 0.33333334
      - serializedVersion: 3
        time: 2.4166667
        value: -38.650124
        inSlope: 0
        outSlope: 0
        tangentMode: 0
        weightedMode: 0
        inWeight: 0.33333334
        outWeight: 0.33333334
      - serializedVersion: 3
        time: 3
        value: 40.264
        inSlope: 0
        outSlope: 0
        tangentMode: 0
        weightedMode: 0
        inWeight: 0.33333334
        outWeight: 0.33333334
      m_PreInfinity: 2
      m_PostInfinity: 2
      m_RotationOrder: 4
    attribute: localEulerAnglesRaw.x
    path: 
    classID: 4
    script: {fileID: 0}
  - curve:
      serializedVersion: 2
      m_Curve:
      - serializedVersion: 3
        time: 0
        value: 0
        inSlope: -0.30093554
        outSlope: -0.30093554
        tangentMode: 0
        weightedMode: 0
        inWeight: 0.33333334
        outWeight: 1
      - serializedVersion: 3
        time: 0.3
        value: -6.0434456
        inSlope: -36.54082
        outSlope: -36.54082
        tangentMode: 0
        weightedMode: 0
        inWeight: 0.33333334
        outWeight: 0.6093003
      - serializedVersion: 3
        time: 0.6
        value: -14.853445
        inSlope: 0
        outSlope: 0
        tangentMode: 136
        weightedMode: 0
        inWeight: 0.33333334
        outWeight: 0.33333334
      - serializedVersion: 3
        time: 2.1833334
        value: 238.79785
        inSlope: 123.731895
        outSlope: 123.731895
        tangentMode: 136
        weightedMode: 0
        inWeight: 0.33333334
        outWeight: 0.33333334
      - serializedVersion: 3
        time: 2.9833333
        value: 312.52145
        inSlope: 0
        outSlope: 0
        tangentMode: 0
        weightedMode: 0
        inWeight: 0.33333334
        outWeight: 0.4781046
      m_PreInfinity: 2
      m_PostInfinity: 2
      m_RotationOrder: 4
    attribute: localEulerAnglesRaw.y
    path: 
    classID: 4
    script: {fileID: 0}
  - curve:
      serializedVersion: 2
      m_Curve:
      - serializedVersion: 3
        time: 0
        value: 0
        inSlope: -42.51893
        outSlope: -42.51893
        tangentMode: 0
        weightedMode: 0
        inWeight: 0.33333334
        outWeight: 0.56496716
      - serializedVersion: 3
        time: 0.41666666
        value: -14.399521
        inSlope: -21.530472
        outSlope: -21.530472
        tangentMode: 136
        weightedMode: 0
        inWeight: 0.33333334
        outWeight: 0.33333334
      - serializedVersion: 3
        time: 1
        value: -21.530472
        inSlope: 12.881226
        outSlope: 12.881226
        tangentMode: 0
        weightedMode: 0
        inWeight: 0.33333334
        outWeight: 0.48585558
      - serializedVersion: 3
        time: 1.5
        value: 1.4852142
        inSlope: 0
        outSlope: 0
        tangentMode: 136
        weightedMode: 0
        inWeight: 0.33333334
        outWeight: 0.33333334
      - serializedVersion: 3
        time: 2
        value: -10.819894
        inSlope: -28.34162
        outSlope: -28.34162
        tangentMode: 136
        weightedMode: 0
        inWeight: 0.33333334
        outWeight: 0.33333334
      - serializedVersion: 3
        time: 2.25
        value: -19.771
        inSlope: 0
        outSlope: 0
        tangentMode: 136
        weightedMode: 0
        inWeight: 0.33333334
        outWeight: 0.33333334
      - serializedVersion: 3
        time: 2.5166667
        value: -11.698
        inSlope: 0
        outSlope: 0
        tangentMode: 136
        weightedMode: 0
        inWeight: 0.33333334
        outWeight: 0.33333334
      - serializedVersion: 3
        time: 2.75
        value: -56.145
        inSlope: 0
        outSlope: 0
        tangentMode: 136
        weightedMode: 0
        inWeight: 0.33333334
        outWeight: 0.33333334
      - serializedVersion: 3
        time: 3
        value: -42.304
        inSlope: 79.57956
        outSlope: 79.57956
        tangentMode: 0
        weightedMode: 0
        inWeight: 0.5497551
        outWeight: 0.33333334
      m_PreInfinity: 2
      m_PostInfinity: 2
      m_RotationOrder: 4
    attribute: localEulerAnglesRaw.z
    path: 
    classID: 4
    script: {fileID: 0}
  m_EulerEditorCurves:
  - curve:
      serializedVersion: 2
      m_Curve: []
      m_PreInfinity: 2
      m_PostInfinity: 2
      m_RotationOrder: 4
    attribute: m_LocalEulerAngles.x
    path: 
    classID: 4
    script: {fileID: 0}
  - curve:
      serializedVersion: 2
      m_Curve: []
      m_PreInfinity: 2
      m_PostInfinity: 2
      m_RotationOrder: 4
    attribute: m_LocalEulerAngles.y
    path: 
    classID: 4
    script: {fileID: 0}
  - curve:
      serializedVersion: 2
      m_Curve: []
      m_PreInfinity: 2
      m_PostInfinity: 2
      m_RotationOrder: 4
    attribute: m_LocalEulerAngles.z
    path: 
    classID: 4
    script: {fileID: 0}
  m_HasGenericRootTransform: 1
  m_HasMotionFloatCurves: 0
  m_Events: []
